﻿<?xml version="1.0" encoding="UTF-8"?>
<TestRun id="7872ece1-4e16-4110-b5e6-b1c5e2e89440" name="G N MALEK@GNMALEK-PC 2015-06-10 19:20:05" runUser="GNMALEK-PC\G N MALEK" xmlns="http://microsoft.com/schemas/VisualStudio/TeamTest/2010">
  <TestSettings name="Local" id="260d8e00-1d3a-4ebd-a21c-8c2b3a6da126">
    <Description>These are default test settings for a local test run.</Description>
    <Deployment enabled="false" runDeploymentRoot="G N MALEK_GNMALEK-PC 2015-06-10 19_20_05">
      <DeploymentItem filename="E:\bitbucketRepository\newfizzbuzz\FizzBuzzDemo\packages\Moq.4.2.1502.0911\lib\net40\Moq.dll" />
      <DeploymentItem filename="E:\bitbucketRepository\newfizzbuzz\FizzBuzzDemo\packages\Microsoft.Web.Infrastructure.1.0.0.0\lib\net40\Microsoft.Web.Infrastructure.dll" />
      <DeploymentItem filename="E:\bitbucketRepository\newfizzbuzz\FizzBuzzDemo\packages\WebActivatorEx.2.0\lib\net40\WebActivatorEx.dll" />
      <DeploymentItem filename="E:\bitbucketRepository\newfizzbuzz\FizzBuzzDemo\MvcFizzBuzz.Web\bin\MvcFizzBuzz.Web.dll" />
    </Deployment>
    <Execution>
      <TestTypeSpecific />
      <AgentRule name="Execution Agents">
      </AgentRule>
    </Execution>
  </TestSettings>
  <Times creation="2015-06-10T19:20:05.8840000+05:30" queuing="2015-06-10T19:20:06.9410000+05:30" start="2015-06-10T19:20:07.1020000+05:30" finish="2015-06-10T19:21:46.5400000+05:30" />
  <ResultSummary outcome="Failed">
    <Counters total="12" executed="12" passed="9" error="0" failed="3" timeout="0" aborted="0" inconclusive="0" passedButRunAborted="0" notRunnable="0" notExecuted="0" disconnected="0" warning="0" completed="0" inProgress="0" pending="0" />
  </ResultSummary>
  <TestDefinitions>
    <UnitTest name="Index_Action_By_Passing_Number_Five_Returns_Five_Items" storage="e:\bitbucketrepository\newfizzbuzz\fizzbuzzdemo\fizzbuzztest\bin\debug\fizzbuzztest.dll" id="624cc760-7df4-34c5-39a8-0c50dccc43d4">
      <Execution id="1daf2f1c-3422-4aca-94cb-45c347c418cf" />
      <TestMethod codeBase="E:/bitbucketRepository/newfizzbuzz/FizzBuzzDemo/FizzBuzzTest/bin/Debug/FizzBuzzTest.DLL" adapterTypeName="Microsoft.VisualStudio.TestTools.TestTypes.Unit.UnitTestAdapter, Microsoft.VisualStudio.QualityTools.Tips.UnitTest.Adapter, Version=10.0.0.0, Culture=neutral, PublicKeyToken=b03f5f7f11d50a3a" className="FizzBuzzTest.FizzBuzzControllerTest, FizzBuzzTest, Version=1.0.0.0, Culture=neutral, PublicKeyToken=null" name="Index_Action_By_Passing_Number_Five_Returns_Five_Items" />
    </UnitTest>
    <UnitTest name="Index_Action_By_Passing_Number_Three_Returns_Three_Items" storage="e:\bitbucketrepository\newfizzbuzz\fizzbuzzdemo\fizzbuzztest\bin\debug\fizzbuzztest.dll" id="117223e8-74b2-4333-f85d-25c6d0471aee">
      <Execution id="6af004dc-847f-443d-acf6-82fbac328cfc" />
      <TestMethod codeBase="E:/bitbucketRepository/newfizzbuzz/FizzBuzzDemo/FizzBuzzTest/bin/Debug/FizzBuzzTest.DLL" adapterTypeName="Microsoft.VisualStudio.TestTools.TestTypes.Unit.UnitTestAdapter, Microsoft.VisualStudio.QualityTools.Tips.UnitTest.Adapter, Version=10.0.0.0, Culture=neutral, PublicKeyToken=b03f5f7f11d50a3a" className="FizzBuzzTest.FizzBuzzControllerTest, FizzBuzzTest, Version=1.0.0.0, Culture=neutral, PublicKeyToken=null" name="Index_Action_By_Passing_Number_Three_Returns_Three_Items" />
    </UnitTest>
    <UnitTest name="Index_ActionResult_Returns_Index_View" storage="e:\bitbucketrepository\newfizzbuzz\fizzbuzzdemo\fizzbuzztest\bin\debug\fizzbuzztest.dll" id="90da0bb6-b80a-f2bf-fcaa-b711489582e7">
      <Execution id="277df3d1-5c07-4f52-b461-1065b18d4a40" />
      <TestMethod codeBase="E:/bitbucketRepository/newfizzbuzz/FizzBuzzDemo/FizzBuzzTest/bin/Debug/FizzBuzzTest.DLL" adapterTypeName="Microsoft.VisualStudio.TestTools.TestTypes.Unit.UnitTestAdapter, Microsoft.VisualStudio.QualityTools.Tips.UnitTest.Adapter, Version=10.0.0.0, Culture=neutral, PublicKeyToken=b03f5f7f11d50a3a" className="FizzBuzzTest.FizzBuzzControllerTest, FizzBuzzTest, Version=1.0.0.0, Culture=neutral, PublicKeyToken=null" name="Index_ActionResult_Returns_Index_View" />
    </UnitTest>
    <UnitTest name="Passing_number_Five_Returns_string_Buzz" storage="e:\bitbucketrepository\newfizzbuzz\fizzbuzzdemo\fizzbuzztest\bin\debug\fizzbuzztest.dll" id="bcbfac78-345f-ee68-d750-0c8065fe15cc">
      <Execution id="188594a9-8a75-4ad9-a4a4-8a51b42373f1" />
      <TestMethod codeBase="E:/bitbucketRepository/newfizzbuzz/FizzBuzzDemo/FizzBuzzTest/bin/Debug/FizzBuzzTest.DLL" adapterTypeName="Microsoft.VisualStudio.TestTools.TestTypes.Unit.UnitTestAdapter, Microsoft.VisualStudio.QualityTools.Tips.UnitTest.Adapter, Version=10.0.0.0, Culture=neutral, PublicKeyToken=b03f5f7f11d50a3a" className="FizzBuzzTest.FuzzBuzzRepositoryTest, FizzBuzzTest, Version=1.0.0.0, Culture=neutral, PublicKeyToken=null" name="Passing_number_Five_Returns_string_Buzz" />
    </UnitTest>
    <UnitTest name="Passing_number_Three_Returns_string_Fizz" storage="e:\bitbucketrepository\newfizzbuzz\fizzbuzzdemo\fizzbuzztest\bin\debug\fizzbuzztest.dll" id="1004dfff-1a7b-9dde-5809-501bbf52734c">
      <Execution id="5f26f1ab-4968-4b38-bfe7-e232187c0c25" />
      <TestMethod codeBase="E:/bitbucketRepository/newfizzbuzz/FizzBuzzDemo/FizzBuzzTest/bin/Debug/FizzBuzzTest.DLL" adapterTypeName="Microsoft.VisualStudio.TestTools.TestTypes.Unit.UnitTestAdapter, Microsoft.VisualStudio.QualityTools.Tips.UnitTest.Adapter, Version=10.0.0.0, Culture=neutral, PublicKeyToken=b03f5f7f11d50a3a" className="FizzBuzzTest.FuzzBuzzRepositoryTest, FizzBuzzTest, Version=1.0.0.0, Culture=neutral, PublicKeyToken=null" name="Passing_number_Three_Returns_string_Fizz" />
    </UnitTest>
    <UnitTest name="Passing_number_Fifteen_Returns_string_Fizz_Buzz" storage="e:\bitbucketrepository\newfizzbuzz\fizzbuzzdemo\fizzbuzztest\bin\debug\fizzbuzztest.dll" id="763b68f2-f665-9d90-a08a-b1e09eb21115">
      <Execution id="77f73c06-c558-4ae7-9e24-64772055782d" />
      <TestMethod codeBase="E:/bitbucketRepository/newfizzbuzz/FizzBuzzDemo/FizzBuzzTest/bin/Debug/FizzBuzzTest.DLL" adapterTypeName="Microsoft.VisualStudio.TestTools.TestTypes.Unit.UnitTestAdapter, Microsoft.VisualStudio.QualityTools.Tips.UnitTest.Adapter, Version=10.0.0.0, Culture=neutral, PublicKeyToken=b03f5f7f11d50a3a" className="FizzBuzzTest.FuzzBuzzRepositoryTest, FizzBuzzTest, Version=1.0.0.0, Culture=neutral, PublicKeyToken=null" name="Passing_number_Fifteen_Returns_string_Fizz_Buzz" />
    </UnitTest>
    <UnitTest name="Passing_number_Three_Returns_Three_Items_From_Repository" storage="e:\bitbucketrepository\newfizzbuzz\fizzbuzzdemo\fizzbuzztest\bin\debug\fizzbuzztest.dll" id="676d9375-2da3-cdcf-26be-d496d06ee806">
      <Execution id="ad955bed-7986-486a-bd03-14321935affd" />
      <TestMethod codeBase="E:/bitbucketRepository/newfizzbuzz/FizzBuzzDemo/FizzBuzzTest/bin/Debug/FizzBuzzTest.DLL" adapterTypeName="Microsoft.VisualStudio.TestTools.TestTypes.Unit.UnitTestAdapter, Microsoft.VisualStudio.QualityTools.Tips.UnitTest.Adapter, Version=10.0.0.0, Culture=neutral, PublicKeyToken=b03f5f7f11d50a3a" className="FizzBuzzTest.FuzzBuzzRepositoryTest, FizzBuzzTest, Version=1.0.0.0, Culture=neutral, PublicKeyToken=null" name="Passing_number_Three_Returns_Three_Items_From_Repository" />
    </UnitTest>
    <UnitTest name="Passing_number_Five_Returns_Five_Items_From_Repository" storage="e:\bitbucketrepository\newfizzbuzz\fizzbuzzdemo\fizzbuzztest\bin\debug\fizzbuzztest.dll" id="83f069c5-8f2f-289a-14b7-2900438b0117">
      <Execution id="94805bf8-8f2f-4c8d-91bc-a4eab044e122" />
      <TestMethod codeBase="E:/bitbucketRepository/newfizzbuzz/FizzBuzzDemo/FizzBuzzTest/bin/Debug/FizzBuzzTest.DLL" adapterTypeName="Microsoft.VisualStudio.TestTools.TestTypes.Unit.UnitTestAdapter, Microsoft.VisualStudio.QualityTools.Tips.UnitTest.Adapter, Version=10.0.0.0, Culture=neutral, PublicKeyToken=b03f5f7f11d50a3a" className="FizzBuzzTest.FuzzBuzzRepositoryTest, FizzBuzzTest, Version=1.0.0.0, Culture=neutral, PublicKeyToken=null" name="Passing_number_Five_Returns_Five_Items_From_Repository" />
    </UnitTest>
    <UnitTest name="Index_ActionResult_Returns_ViewResult" storage="e:\bitbucketrepository\newfizzbuzz\fizzbuzzdemo\fizzbuzztest\bin\debug\fizzbuzztest.dll" id="66fa80c6-90d7-5f4a-cf9f-8a9a463cd66c">
      <Execution id="4bf6f6f3-2c76-418e-8651-3dec5c4e97ac" />
      <TestMethod codeBase="E:/bitbucketRepository/newfizzbuzz/FizzBuzzDemo/FizzBuzzTest/bin/Debug/FizzBuzzTest.DLL" adapterTypeName="Microsoft.VisualStudio.TestTools.TestTypes.Unit.UnitTestAdapter, Microsoft.VisualStudio.QualityTools.Tips.UnitTest.Adapter, Version=10.0.0.0, Culture=neutral, PublicKeyToken=b03f5f7f11d50a3a" className="FizzBuzzTest.FizzBuzzControllerTest, FizzBuzzTest, Version=1.0.0.0, Culture=neutral, PublicKeyToken=null" name="Index_ActionResult_Returns_ViewResult" />
    </UnitTest>
    <UnitTest name="Index_Action_Returns_Lists_Of_Items" storage="e:\bitbucketrepository\newfizzbuzz\fizzbuzzdemo\fizzbuzztest\bin\debug\fizzbuzztest.dll" id="2c42bffc-434f-f46c-461c-a0045cb66630">
      <Execution id="b39dd0be-8821-438f-85f4-dd43135d4681" />
      <TestMethod codeBase="E:/bitbucketRepository/newfizzbuzz/FizzBuzzDemo/FizzBuzzTest/bin/Debug/FizzBuzzTest.DLL" adapterTypeName="Microsoft.VisualStudio.TestTools.TestTypes.Unit.UnitTestAdapter, Microsoft.VisualStudio.QualityTools.Tips.UnitTest.Adapter, Version=10.0.0.0, Culture=neutral, PublicKeyToken=b03f5f7f11d50a3a" className="FizzBuzzTest.FizzBuzzControllerTest, FizzBuzzTest, Version=1.0.0.0, Culture=neutral, PublicKeyToken=null" name="Index_Action_Returns_Lists_Of_Items" />
    </UnitTest>
    <UnitTest name="Passing_number_Fifteen_Returns_Fifteen_Items_From_Repository" storage="e:\bitbucketrepository\newfizzbuzz\fizzbuzzdemo\fizzbuzztest\bin\debug\fizzbuzztest.dll" id="9c78658f-dfe1-565a-5754-9061b362c804">
      <Execution id="a4c4c720-f4e9-49bb-a267-eae42cce3996" />
      <TestMethod codeBase="E:/bitbucketRepository/newfizzbuzz/FizzBuzzDemo/FizzBuzzTest/bin/Debug/FizzBuzzTest.DLL" adapterTypeName="Microsoft.VisualStudio.TestTools.TestTypes.Unit.UnitTestAdapter, Microsoft.VisualStudio.QualityTools.Tips.UnitTest.Adapter, Version=10.0.0.0, Culture=neutral, PublicKeyToken=b03f5f7f11d50a3a" className="FizzBuzzTest.FuzzBuzzRepositoryTest, FizzBuzzTest, Version=1.0.0.0, Culture=neutral, PublicKeyToken=null" name="Passing_number_Fifteen_Returns_Fifteen_Items_From_Repository" />
    </UnitTest>
    <UnitTest name="Index_Action_By_Passing_Number_Fifteen_Returns_Fifteen_Items" storage="e:\bitbucketrepository\newfizzbuzz\fizzbuzzdemo\fizzbuzztest\bin\debug\fizzbuzztest.dll" id="26f8bcbc-cf79-b2c1-ff79-3d051b3eb594">
      <Execution id="8b654424-08d7-46eb-930f-880b77ce200e" />
      <TestMethod codeBase="E:/bitbucketRepository/newfizzbuzz/FizzBuzzDemo/FizzBuzzTest/bin/Debug/FizzBuzzTest.DLL" adapterTypeName="Microsoft.VisualStudio.TestTools.TestTypes.Unit.UnitTestAdapter, Microsoft.VisualStudio.QualityTools.Tips.UnitTest.Adapter, Version=10.0.0.0, Culture=neutral, PublicKeyToken=b03f5f7f11d50a3a" className="FizzBuzzTest.FizzBuzzControllerTest, FizzBuzzTest, Version=1.0.0.0, Culture=neutral, PublicKeyToken=null" name="Index_Action_By_Passing_Number_Fifteen_Returns_Fifteen_Items" />
    </UnitTest>
  </TestDefinitions>
  <TestLists>
    <TestList name="Results Not in a List" id="8c84fa94-04c1-424b-9868-57a2d4851a1d" />
    <TestList name="All Loaded Results" id="19431567-8539-422a-85d7-44ee4e166bda" />
  </TestLists>
  <TestEntries>
    <TestEntry testId="117223e8-74b2-4333-f85d-25c6d0471aee" executionId="6af004dc-847f-443d-acf6-82fbac328cfc" testListId="8c84fa94-04c1-424b-9868-57a2d4851a1d" />
    <TestEntry testId="624cc760-7df4-34c5-39a8-0c50dccc43d4" executionId="1daf2f1c-3422-4aca-94cb-45c347c418cf" testListId="8c84fa94-04c1-424b-9868-57a2d4851a1d" />
    <TestEntry testId="26f8bcbc-cf79-b2c1-ff79-3d051b3eb594" executionId="8b654424-08d7-46eb-930f-880b77ce200e" testListId="8c84fa94-04c1-424b-9868-57a2d4851a1d" />
    <TestEntry testId="2c42bffc-434f-f46c-461c-a0045cb66630" executionId="b39dd0be-8821-438f-85f4-dd43135d4681" testListId="8c84fa94-04c1-424b-9868-57a2d4851a1d" />
    <TestEntry testId="676d9375-2da3-cdcf-26be-d496d06ee806" executionId="ad955bed-7986-486a-bd03-14321935affd" testListId="8c84fa94-04c1-424b-9868-57a2d4851a1d" />
    <TestEntry testId="83f069c5-8f2f-289a-14b7-2900438b0117" executionId="94805bf8-8f2f-4c8d-91bc-a4eab044e122" testListId="8c84fa94-04c1-424b-9868-57a2d4851a1d" />
    <TestEntry testId="9c78658f-dfe1-565a-5754-9061b362c804" executionId="a4c4c720-f4e9-49bb-a267-eae42cce3996" testListId="8c84fa94-04c1-424b-9868-57a2d4851a1d" />
    <TestEntry testId="1004dfff-1a7b-9dde-5809-501bbf52734c" executionId="5f26f1ab-4968-4b38-bfe7-e232187c0c25" testListId="8c84fa94-04c1-424b-9868-57a2d4851a1d" />
    <TestEntry testId="bcbfac78-345f-ee68-d750-0c8065fe15cc" executionId="188594a9-8a75-4ad9-a4a4-8a51b42373f1" testListId="8c84fa94-04c1-424b-9868-57a2d4851a1d" />
    <TestEntry testId="763b68f2-f665-9d90-a08a-b1e09eb21115" executionId="77f73c06-c558-4ae7-9e24-64772055782d" testListId="8c84fa94-04c1-424b-9868-57a2d4851a1d" />
    <TestEntry testId="66fa80c6-90d7-5f4a-cf9f-8a9a463cd66c" executionId="4bf6f6f3-2c76-418e-8651-3dec5c4e97ac" testListId="8c84fa94-04c1-424b-9868-57a2d4851a1d" />
    <TestEntry testId="90da0bb6-b80a-f2bf-fcaa-b711489582e7" executionId="277df3d1-5c07-4f52-b461-1065b18d4a40" testListId="8c84fa94-04c1-424b-9868-57a2d4851a1d" />
  </TestEntries>
  <Results>
    <UnitTestResult executionId="6af004dc-847f-443d-acf6-82fbac328cfc" testId="117223e8-74b2-4333-f85d-25c6d0471aee" testName="Index_Action_By_Passing_Number_Three_Returns_Three_Items" computerName="GNMALEK-PC" duration="00:00:03.9836650" startTime="2015-06-10T19:20:07.2170000+05:30" endTime="2015-06-10T19:20:11.8320000+05:30" testType="13cdc9d9-ddb5-4fa4-a97d-d965ccfc6d4b" outcome="Failed" testListId="8c84fa94-04c1-424b-9868-57a2d4851a1d" relativeResultsDirectory="6af004dc-847f-443d-acf6-82fbac328cfc">
      <Output>
        <ErrorInfo>
          <Message>Test method FizzBuzzTest.FizzBuzzControllerTest.Index_Action_By_Passing_Number_Three_Returns_Three_Items threw exception: 
System.ArgumentNullException: Value cannot be null.
Parameter name: source</Message>
          <StackTrace>    at System.Linq.Queryable.AsQueryable[TElement](IEnumerable`1 source)
   at PagedList.PagedList`1..ctor(IEnumerable`1 superset, Int32 pageNumber, Int32 pageSize)
   at PagedList.PagedListExtensions.ToPagedList[T](IEnumerable`1 superset, Int32 pageNumber, Int32 pageSize)
   at MvcFizzBuzz.Web.Controllers.FizzBuzzController.Index(FizzBuzzViewModel model) in E:\bitbucketRepository\newfizzbuzz\FizzBuzzDemo\MvcFizzBuzz.Web\Controllers\FizzBuzzController.cs:line 73
   at FizzBuzzTest.FizzBuzzControllerTest.Index_Action_By_Passing_Number_Three_Returns_Three_Items() in E:\bitbucketRepository\newfizzbuzz\FizzBuzzDemo\FizzBuzzTest\FizzBuzzControllerTest.cs:line 59
</StackTrace>
        </ErrorInfo>
      </Output>
    </UnitTestResult>
    <UnitTestResult executionId="1daf2f1c-3422-4aca-94cb-45c347c418cf" testId="624cc760-7df4-34c5-39a8-0c50dccc43d4" testName="Index_Action_By_Passing_Number_Five_Returns_Five_Items" computerName="GNMALEK-PC" duration="00:00:01.4461143" startTime="2015-06-10T19:20:11.8400000+05:30" endTime="2015-06-10T19:20:13.2950000+05:30" testType="13cdc9d9-ddb5-4fa4-a97d-d965ccfc6d4b" outcome="Failed" testListId="8c84fa94-04c1-424b-9868-57a2d4851a1d" relativeResultsDirectory="1daf2f1c-3422-4aca-94cb-45c347c418cf">
      <Output>
        <ErrorInfo>
          <Message>Test method FizzBuzzTest.FizzBuzzControllerTest.Index_Action_By_Passing_Number_Five_Returns_Five_Items threw exception: 
System.ArgumentNullException: Value cannot be null.
Parameter name: source</Message>
          <StackTrace>    at System.Linq.Enumerable.First[TSource](IEnumerable`1 source)
   at FizzBuzzTest.FizzBuzzControllerTest.Index_Action_By_Passing_Number_Five_Returns_Five_Items() in E:\bitbucketRepository\newfizzbuzz\FizzBuzzDemo\FizzBuzzTest\FizzBuzzControllerTest.cs:line 73
</StackTrace>
        </ErrorInfo>
      </Output>
    </UnitTestResult>
    <UnitTestResult executionId="8b654424-08d7-46eb-930f-880b77ce200e" testId="26f8bcbc-cf79-b2c1-ff79-3d051b3eb594" testName="Index_Action_By_Passing_Number_Fifteen_Returns_Fifteen_Items" computerName="GNMALEK-PC" duration="00:00:01.7780470" startTime="2015-06-10T19:20:13.3100000+05:30" endTime="2015-06-10T19:20:15.0930000+05:30" testType="13cdc9d9-ddb5-4fa4-a97d-d965ccfc6d4b" outcome="Failed" testListId="8c84fa94-04c1-424b-9868-57a2d4851a1d" relativeResultsDirectory="8b654424-08d7-46eb-930f-880b77ce200e">
      <Output>
        <ErrorInfo>
          <Message>Test method FizzBuzzTest.FizzBuzzControllerTest.Index_Action_By_Passing_Number_Fifteen_Returns_Fifteen_Items threw exception: 
System.ArgumentNullException: Value cannot be null.
Parameter name: source</Message>
          <StackTrace>    at System.Linq.Enumerable.First[TSource](IEnumerable`1 source)
   at FizzBuzzTest.FizzBuzzControllerTest.Index_Action_By_Passing_Number_Fifteen_Returns_Fifteen_Items() in E:\bitbucketRepository\newfizzbuzz\FizzBuzzDemo\FizzBuzzTest\FizzBuzzControllerTest.cs:line 84
</StackTrace>
        </ErrorInfo>
      </Output>
    </UnitTestResult>
    <UnitTestResult executionId="b39dd0be-8821-438f-85f4-dd43135d4681" testId="2c42bffc-434f-f46c-461c-a0045cb66630" testName="Index_Action_Returns_Lists_Of_Items" computerName="GNMALEK-PC" duration="00:01:24.7965811" startTime="2015-06-10T19:20:15.1040000+05:30" endTime="2015-06-10T19:21:39.9160000+05:30" testType="13cdc9d9-ddb5-4fa4-a97d-d965ccfc6d4b" outcome="Passed" testListId="8c84fa94-04c1-424b-9868-57a2d4851a1d" relativeResultsDirectory="b39dd0be-8821-438f-85f4-dd43135d4681">
    </UnitTestResult>
    <UnitTestResult executionId="ad955bed-7986-486a-bd03-14321935affd" testId="676d9375-2da3-cdcf-26be-d496d06ee806" testName="Passing_number_Three_Returns_Three_Items_From_Repository" computerName="GNMALEK-PC" duration="00:00:00.0030385" startTime="2015-06-10T19:21:39.9340000+05:30" endTime="2015-06-10T19:21:39.9440000+05:30" testType="13cdc9d9-ddb5-4fa4-a97d-d965ccfc6d4b" outcome="Passed" testListId="8c84fa94-04c1-424b-9868-57a2d4851a1d" relativeResultsDirectory="ad955bed-7986-486a-bd03-14321935affd">
    </UnitTestResult>
    <UnitTestResult executionId="94805bf8-8f2f-4c8d-91bc-a4eab044e122" testId="83f069c5-8f2f-289a-14b7-2900438b0117" testName="Passing_number_Five_Returns_Five_Items_From_Repository" computerName="GNMALEK-PC" duration="00:00:00.0003755" startTime="2015-06-10T19:21:39.9530000+05:30" endTime="2015-06-10T19:21:39.9570000+05:30" testType="13cdc9d9-ddb5-4fa4-a97d-d965ccfc6d4b" outcome="Passed" testListId="8c84fa94-04c1-424b-9868-57a2d4851a1d" relativeResultsDirectory="94805bf8-8f2f-4c8d-91bc-a4eab044e122">
    </UnitTestResult>
    <UnitTestResult executionId="a4c4c720-f4e9-49bb-a267-eae42cce3996" testId="9c78658f-dfe1-565a-5754-9061b362c804" testName="Passing_number_Fifteen_Returns_Fifteen_Items_From_Repository" computerName="GNMALEK-PC" duration="00:00:00.0004204" startTime="2015-06-10T19:21:39.9710000+05:30" endTime="2015-06-10T19:21:39.9760000+05:30" testType="13cdc9d9-ddb5-4fa4-a97d-d965ccfc6d4b" outcome="Passed" testListId="8c84fa94-04c1-424b-9868-57a2d4851a1d" relativeResultsDirectory="a4c4c720-f4e9-49bb-a267-eae42cce3996">
    </UnitTestResult>
    <UnitTestResult executionId="5f26f1ab-4968-4b38-bfe7-e232187c0c25" testId="1004dfff-1a7b-9dde-5809-501bbf52734c" testName="Passing_number_Three_Returns_string_Fizz" computerName="GNMALEK-PC" duration="00:00:00.0002465" startTime="2015-06-10T19:21:39.9820000+05:30" endTime="2015-06-10T19:21:39.9860000+05:30" testType="13cdc9d9-ddb5-4fa4-a97d-d965ccfc6d4b" outcome="Passed" testListId="8c84fa94-04c1-424b-9868-57a2d4851a1d" relativeResultsDirectory="5f26f1ab-4968-4b38-bfe7-e232187c0c25">
    </UnitTestResult>
    <UnitTestResult executionId="188594a9-8a75-4ad9-a4a4-8a51b42373f1" testId="bcbfac78-345f-ee68-d750-0c8065fe15cc" testName="Passing_number_Five_Returns_string_Buzz" computerName="GNMALEK-PC" duration="00:00:00.0001882" startTime="2015-06-10T19:21:39.9920000+05:30" endTime="2015-06-10T19:21:39.9970000+05:30" testType="13cdc9d9-ddb5-4fa4-a97d-d965ccfc6d4b" outcome="Passed" testListId="8c84fa94-04c1-424b-9868-57a2d4851a1d" relativeResultsDirectory="188594a9-8a75-4ad9-a4a4-8a51b42373f1">
    </UnitTestResult>
    <UnitTestResult executionId="77f73c06-c558-4ae7-9e24-64772055782d" testId="763b68f2-f665-9d90-a08a-b1e09eb21115" testName="Passing_number_Fifteen_Returns_string_Fizz_Buzz" computerName="GNMALEK-PC" duration="00:00:00.0002086" startTime="2015-06-10T19:21:40.0020000+05:30" endTime="2015-06-10T19:21:40.0090000+05:30" testType="13cdc9d9-ddb5-4fa4-a97d-d965ccfc6d4b" outcome="Passed" testListId="8c84fa94-04c1-424b-9868-57a2d4851a1d" relativeResultsDirectory="77f73c06-c558-4ae7-9e24-64772055782d">
    </UnitTestResult>
    <UnitTestResult executionId="4bf6f6f3-2c76-418e-8651-3dec5c4e97ac" testId="66fa80c6-90d7-5f4a-cf9f-8a9a463cd66c" testName="Index_ActionResult_Returns_ViewResult" computerName="GNMALEK-PC" duration="00:00:04.7100841" startTime="2015-06-10T19:21:40.0140000+05:30" endTime="2015-06-10T19:21:44.7300000+05:30" testType="13cdc9d9-ddb5-4fa4-a97d-d965ccfc6d4b" outcome="Passed" testListId="8c84fa94-04c1-424b-9868-57a2d4851a1d" relativeResultsDirectory="4bf6f6f3-2c76-418e-8651-3dec5c4e97ac">
    </UnitTestResult>
    <UnitTestResult executionId="277df3d1-5c07-4f52-b461-1065b18d4a40" testId="90da0bb6-b80a-f2bf-fcaa-b711489582e7" testName="Index_ActionResult_Returns_Index_View" computerName="GNMALEK-PC" duration="00:00:01.2363719" startTime="2015-06-10T19:21:44.7650000+05:30" endTime="2015-06-10T19:21:46.0090000+05:30" testType="13cdc9d9-ddb5-4fa4-a97d-d965ccfc6d4b" outcome="Passed" testListId="8c84fa94-04c1-424b-9868-57a2d4851a1d" relativeResultsDirectory="277df3d1-5c07-4f52-b461-1065b18d4a40">
    </UnitTestResult>
  </Results>
</TestRun>