﻿<?xml version="1.0" encoding="UTF-8"?>
<TestRun id="32935da7-61b1-45ff-8ee8-d215cd8fb57b" name="shree om systems@SHREE-DD1D10F2C 2015-06-05 15:37:46" runUser="SHREE-DD1D10F2C\shree om systems" xmlns="http://microsoft.com/schemas/VisualStudio/TeamTest/2010">
  <TestSettings name="Local" id="260d8e00-1d3a-4ebd-a21c-8c2b3a6da126">
    <Description>These are default test settings for a local test run.</Description>
    <Deployment enabled="false" runDeploymentRoot="shree om systems_SHREE-DD1D10F2C 2015-06-05 15_37_46">
      <DeploymentItem filename="D:\DemoProject\FizzBuzzDemo\packages\Moq.4.2.1502.0911\lib\net40\Moq.dll" />
      <DeploymentItem filename="D:\DemoProject\FizzBuzzDemo\packages\Microsoft.Web.Infrastructure.1.0.0.0\lib\net40\Microsoft.Web.Infrastructure.dll" />
      <DeploymentItem filename="D:\DemoProject\FizzBuzzDemo\ServiceRepository\bin\Debug\ServiceRepository.dll" />
      <DeploymentItem filename="D:\DemoProject\FizzBuzzDemo\MvcFizzBuzz.Web\bin\MvcFizzBuzz.Web.dll" />
      <DeploymentItem filename="D:\DemoProject\FizzBuzzDemo\DAL.Models\bin\Debug\DAL.Models.dll" />
      <DeploymentItem filename="D:\DemoProject\FizzBuzzDemo\packages\WebActivatorEx.2.0\lib\net40\WebActivatorEx.dll" />
    </Deployment>
    <Execution>
      <TestTypeSpecific />
      <AgentRule name="Execution Agents">
      </AgentRule>
    </Execution>
  </TestSettings>
  <Times creation="2015-06-05T15:37:46.0781250+05:30" queuing="2015-06-05T15:37:57.4531250+05:30" start="2015-06-05T15:37:58.7812500+05:30" finish="2015-06-05T15:39:19.1875000+05:30" />
  <ResultSummary outcome="Error">
    <Counters total="8" executed="4" passed="3" error="0" failed="0" timeout="0" aborted="1" inconclusive="0" passedButRunAborted="0" notRunnable="0" notExecuted="4" disconnected="0" warning="0" completed="0" inProgress="0" pending="0" />
    <RunInfos>
      <RunInfo computerName="SHREE-DD1D10F2C" outcome="Error" timestamp="2015-06-05T15:39:19.0937500+05:30">
        <Text>Test host process exited unexpectedly.</Text>
      </RunInfo>
    </RunInfos>
  </ResultSummary>
  <TestDefinitions>
    <UnitTest name="Input_5_Output_Buzz" storage="d:\demoproject\fizzbuzzdemo\fizzbuzztest\bin\debug\fizzbuzztest.dll" id="31526f9d-82fd-5c1c-a18a-28ede06080eb">
      <Execution id="d9785f61-ec32-401c-afe8-9047e17fdc35" />
      <TestMethod codeBase="D:/DemoProject/FizzBuzzDemo/FizzBuzzTest/bin/Debug/FizzBuzzTest.DLL" adapterTypeName="Microsoft.VisualStudio.TestTools.TestTypes.Unit.UnitTestAdapter, Microsoft.VisualStudio.QualityTools.Tips.UnitTest.Adapter, Version=10.0.0.0, Culture=neutral, PublicKeyToken=b03f5f7f11d50a3a" className="FizzBuzzTest.FizzBuzzUnitTestController, FizzBuzzTest, Version=1.0.0.0, Culture=neutral, PublicKeyToken=null" name="Input_5_Output_Buzz" />
    </UnitTest>
    <UnitTest name="Input_3_Return_12Fizz" storage="d:\demoproject\fizzbuzzdemo\fizzbuzztest\bin\debug\fizzbuzztest.dll" id="145666c7-ed77-f201-c493-205f009ec71f">
      <Execution id="9e4e50aa-ea40-41d4-9fb2-ba74804fee43" />
      <TestMethod codeBase="D:/DemoProject/FizzBuzzDemo/FizzBuzzTest/bin/Debug/FizzBuzzTest.DLL" adapterTypeName="Microsoft.VisualStudio.TestTools.TestTypes.Unit.UnitTestAdapter, Microsoft.VisualStudio.QualityTools.Tips.UnitTest.Adapter, Version=10.0.0.0, Culture=neutral, PublicKeyToken=b03f5f7f11d50a3a" className="FizzBuzzTest.FizzBuzzUnitTestController, FizzBuzzTest, Version=1.0.0.0, Culture=neutral, PublicKeyToken=null" name="Input_3_Return_12Fizz" />
    </UnitTest>
    <UnitTest name="Test_Action_Returns_FizzBuzzLists" storage="d:\demoproject\fizzbuzzdemo\fizzbuzztest\bin\debug\fizzbuzztest.dll" id="ddc34a25-8dee-bd07-3ef6-54a291e7f19e">
      <Execution id="34082da7-f0c2-40f6-96b5-7e123818b328" />
      <TestMethod codeBase="D:/DemoProject/FizzBuzzDemo/FizzBuzzTest/bin/Debug/FizzBuzzTest.DLL" adapterTypeName="Microsoft.VisualStudio.TestTools.TestTypes.Unit.UnitTestAdapter, Microsoft.VisualStudio.QualityTools.Tips.UnitTest.Adapter, Version=10.0.0.0, Culture=neutral, PublicKeyToken=b03f5f7f11d50a3a" className="FizzBuzzTest.FizzBuzzUnitTestController, FizzBuzzTest, Version=1.0.0.0, Culture=neutral, PublicKeyToken=null" name="Test_Action_Returns_FizzBuzzLists" />
    </UnitTest>
    <UnitTest name="Input_15_Return_12Fizz4Buzz5Fizz78FizzBuzz11Fizz1314FizzBuzz" storage="d:\demoproject\fizzbuzzdemo\fizzbuzztest\bin\debug\fizzbuzztest.dll" id="96649c23-35e4-ac98-d05e-f6c3c4eb7e55">
      <Execution id="e67054ac-e65f-48fd-8f56-9487b4d4527c" />
      <TestMethod codeBase="D:/DemoProject/FizzBuzzDemo/FizzBuzzTest/bin/Debug/FizzBuzzTest.DLL" adapterTypeName="Microsoft.VisualStudio.TestTools.TestTypes.Unit.UnitTestAdapter, Microsoft.VisualStudio.QualityTools.Tips.UnitTest.Adapter, Version=10.0.0.0, Culture=neutral, PublicKeyToken=b03f5f7f11d50a3a" className="FizzBuzzTest.FizzBuzzUnitTestController, FizzBuzzTest, Version=1.0.0.0, Culture=neutral, PublicKeyToken=null" name="Input_15_Return_12Fizz4Buzz5Fizz78FizzBuzz11Fizz1314FizzBuzz" />
    </UnitTest>
    <UnitTest name="Default_Action_Returns_Index_View" storage="d:\demoproject\fizzbuzzdemo\fizzbuzztest\bin\debug\fizzbuzztest.dll" id="02ac598a-9dc0-2cb9-d2c6-466ee9700e57">
      <Execution id="80427b6d-62f3-41fe-b4f5-8b9a88fc6e61" />
      <TestMethod codeBase="D:/DemoProject/FizzBuzzDemo/FizzBuzzTest/bin/Debug/FizzBuzzTest.DLL" adapterTypeName="Microsoft.VisualStudio.TestTools.TestTypes.Unit.UnitTestAdapter, Microsoft.VisualStudio.QualityTools.Tips.UnitTest.Adapter, Version=10.0.0.0, Culture=neutral, PublicKeyToken=b03f5f7f11d50a3a" className="FizzBuzzTest.FizzBuzzUnitTestController, FizzBuzzTest, Version=1.0.0.0, Culture=neutral, PublicKeyToken=null" name="Default_Action_Returns_Index_View" />
    </UnitTest>
    <UnitTest name="Input_15_Output_FizzBuzz" storage="d:\demoproject\fizzbuzzdemo\fizzbuzztest\bin\debug\fizzbuzztest.dll" id="0d8bd7fa-28e1-3ebe-36b1-3a8e9e3e0ca1">
      <Execution id="664dc893-1d03-4015-a4ad-4a203e1215bd" />
      <TestMethod codeBase="D:/DemoProject/FizzBuzzDemo/FizzBuzzTest/bin/Debug/FizzBuzzTest.DLL" adapterTypeName="Microsoft.VisualStudio.TestTools.TestTypes.Unit.UnitTestAdapter, Microsoft.VisualStudio.QualityTools.Tips.UnitTest.Adapter, Version=10.0.0.0, Culture=neutral, PublicKeyToken=b03f5f7f11d50a3a" className="FizzBuzzTest.FizzBuzzUnitTestController, FizzBuzzTest, Version=1.0.0.0, Culture=neutral, PublicKeyToken=null" name="Input_15_Output_FizzBuzz" />
    </UnitTest>
    <UnitTest name="Input_3_Output_Fizz" storage="d:\demoproject\fizzbuzzdemo\fizzbuzztest\bin\debug\fizzbuzztest.dll" id="6c0b21aa-2995-d0dd-f267-34cc8ed3df00">
      <Execution id="612d75d1-ace3-4755-acf5-6da27535aceb" />
      <TestMethod codeBase="D:/DemoProject/FizzBuzzDemo/FizzBuzzTest/bin/Debug/FizzBuzzTest.DLL" adapterTypeName="Microsoft.VisualStudio.TestTools.TestTypes.Unit.UnitTestAdapter, Microsoft.VisualStudio.QualityTools.Tips.UnitTest.Adapter, Version=10.0.0.0, Culture=neutral, PublicKeyToken=b03f5f7f11d50a3a" className="FizzBuzzTest.FizzBuzzUnitTestController, FizzBuzzTest, Version=1.0.0.0, Culture=neutral, PublicKeyToken=null" name="Input_3_Output_Fizz" />
    </UnitTest>
    <UnitTest name="Input_5_Return_12Fizz4Buzz" storage="d:\demoproject\fizzbuzzdemo\fizzbuzztest\bin\debug\fizzbuzztest.dll" id="0b9c2df5-1b52-e907-ebee-29fe473aff61">
      <Execution id="506cd3b9-a2e0-4caa-aa9e-fde34bb8c5d2" />
      <TestMethod codeBase="D:/DemoProject/FizzBuzzDemo/FizzBuzzTest/bin/Debug/FizzBuzzTest.DLL" adapterTypeName="Microsoft.VisualStudio.TestTools.TestTypes.Unit.UnitTestAdapter, Microsoft.VisualStudio.QualityTools.Tips.UnitTest.Adapter, Version=10.0.0.0, Culture=neutral, PublicKeyToken=b03f5f7f11d50a3a" className="FizzBuzzTest.FizzBuzzUnitTestController, FizzBuzzTest, Version=1.0.0.0, Culture=neutral, PublicKeyToken=null" name="Input_5_Return_12Fizz4Buzz" />
    </UnitTest>
  </TestDefinitions>
  <TestLists>
    <TestList name="Results Not in a List" id="8c84fa94-04c1-424b-9868-57a2d4851a1d" />
    <TestList name="All Loaded Results" id="19431567-8539-422a-85d7-44ee4e166bda" />
  </TestLists>
  <TestEntries>
    <TestEntry testId="6c0b21aa-2995-d0dd-f267-34cc8ed3df00" executionId="612d75d1-ace3-4755-acf5-6da27535aceb" testListId="8c84fa94-04c1-424b-9868-57a2d4851a1d" />
    <TestEntry testId="31526f9d-82fd-5c1c-a18a-28ede06080eb" executionId="d9785f61-ec32-401c-afe8-9047e17fdc35" testListId="8c84fa94-04c1-424b-9868-57a2d4851a1d" />
    <TestEntry testId="0d8bd7fa-28e1-3ebe-36b1-3a8e9e3e0ca1" executionId="664dc893-1d03-4015-a4ad-4a203e1215bd" testListId="8c84fa94-04c1-424b-9868-57a2d4851a1d" />
    <TestEntry testId="ddc34a25-8dee-bd07-3ef6-54a291e7f19e" executionId="34082da7-f0c2-40f6-96b5-7e123818b328" testListId="8c84fa94-04c1-424b-9868-57a2d4851a1d" />
    <TestEntry testId="02ac598a-9dc0-2cb9-d2c6-466ee9700e57" executionId="80427b6d-62f3-41fe-b4f5-8b9a88fc6e61" testListId="8c84fa94-04c1-424b-9868-57a2d4851a1d" />
    <TestEntry testId="145666c7-ed77-f201-c493-205f009ec71f" executionId="9e4e50aa-ea40-41d4-9fb2-ba74804fee43" testListId="8c84fa94-04c1-424b-9868-57a2d4851a1d" />
    <TestEntry testId="0b9c2df5-1b52-e907-ebee-29fe473aff61" executionId="506cd3b9-a2e0-4caa-aa9e-fde34bb8c5d2" testListId="8c84fa94-04c1-424b-9868-57a2d4851a1d" />
    <TestEntry testId="96649c23-35e4-ac98-d05e-f6c3c4eb7e55" executionId="e67054ac-e65f-48fd-8f56-9487b4d4527c" testListId="8c84fa94-04c1-424b-9868-57a2d4851a1d" />
  </TestEntries>
  <Results>
    <UnitTestResult executionId="612d75d1-ace3-4755-acf5-6da27535aceb" testId="6c0b21aa-2995-d0dd-f267-34cc8ed3df00" testName="Input_3_Output_Fizz" computerName="SHREE-DD1D10F2C" duration="00:00:00.9030247" startTime="2015-06-05T15:37:59.2187500+05:30" endTime="2015-06-05T15:38:04.7656250+05:30" testType="13cdc9d9-ddb5-4fa4-a97d-d965ccfc6d4b" outcome="Passed" testListId="8c84fa94-04c1-424b-9868-57a2d4851a1d" relativeResultsDirectory="612d75d1-ace3-4755-acf5-6da27535aceb">
    </UnitTestResult>
    <UnitTestResult executionId="d9785f61-ec32-401c-afe8-9047e17fdc35" testId="31526f9d-82fd-5c1c-a18a-28ede06080eb" testName="Input_5_Output_Buzz" computerName="SHREE-DD1D10F2C" duration="00:00:00.0004477" startTime="2015-06-05T15:38:04.8593750+05:30" endTime="2015-06-05T15:38:04.8593750+05:30" testType="13cdc9d9-ddb5-4fa4-a97d-d965ccfc6d4b" outcome="Passed" testListId="8c84fa94-04c1-424b-9868-57a2d4851a1d" relativeResultsDirectory="d9785f61-ec32-401c-afe8-9047e17fdc35">
    </UnitTestResult>
    <UnitTestResult executionId="664dc893-1d03-4015-a4ad-4a203e1215bd" testId="0d8bd7fa-28e1-3ebe-36b1-3a8e9e3e0ca1" testName="Input_15_Output_FizzBuzz" computerName="SHREE-DD1D10F2C" duration="00:00:00.0003457" startTime="2015-06-05T15:38:04.9062500+05:30" endTime="2015-06-05T15:38:04.9531250+05:30" testType="13cdc9d9-ddb5-4fa4-a97d-d965ccfc6d4b" outcome="Passed" testListId="8c84fa94-04c1-424b-9868-57a2d4851a1d" relativeResultsDirectory="664dc893-1d03-4015-a4ad-4a203e1215bd">
    </UnitTestResult>
    <UnitTestResult executionId="34082da7-f0c2-40f6-96b5-7e123818b328" testId="ddc34a25-8dee-bd07-3ef6-54a291e7f19e" testName="Test_Action_Returns_FizzBuzzLists" computerName="SHREE-DD1D10F2C" duration="00:01:14.0312500" startTime="2015-06-05T15:38:05.0937500+05:30" endTime="2015-06-05T15:39:19.1250000+05:30" testType="13cdc9d9-ddb5-4fa4-a97d-d965ccfc6d4b" outcome="Aborted" testListId="8c84fa94-04c1-424b-9868-57a2d4851a1d" relativeResultsDirectory="34082da7-f0c2-40f6-96b5-7e123818b328">
    </UnitTestResult>
    <UnitTestResult executionId="80427b6d-62f3-41fe-b4f5-8b9a88fc6e61" testId="02ac598a-9dc0-2cb9-d2c6-466ee9700e57" testName="Default_Action_Returns_Index_View" computerName="SHREE-DD1D10F2C" testType="13cdc9d9-ddb5-4fa4-a97d-d965ccfc6d4b" outcome="NotExecuted" testListId="8c84fa94-04c1-424b-9868-57a2d4851a1d" relativeResultsDirectory="80427b6d-62f3-41fe-b4f5-8b9a88fc6e61">
    </UnitTestResult>
    <UnitTestResult executionId="9e4e50aa-ea40-41d4-9fb2-ba74804fee43" testId="145666c7-ed77-f201-c493-205f009ec71f" testName="Input_3_Return_12Fizz" computerName="SHREE-DD1D10F2C" testType="13cdc9d9-ddb5-4fa4-a97d-d965ccfc6d4b" outcome="NotExecuted" testListId="8c84fa94-04c1-424b-9868-57a2d4851a1d" relativeResultsDirectory="9e4e50aa-ea40-41d4-9fb2-ba74804fee43">
    </UnitTestResult>
    <UnitTestResult executionId="506cd3b9-a2e0-4caa-aa9e-fde34bb8c5d2" testId="0b9c2df5-1b52-e907-ebee-29fe473aff61" testName="Input_5_Return_12Fizz4Buzz" computerName="SHREE-DD1D10F2C" testType="13cdc9d9-ddb5-4fa4-a97d-d965ccfc6d4b" outcome="NotExecuted" testListId="8c84fa94-04c1-424b-9868-57a2d4851a1d" relativeResultsDirectory="506cd3b9-a2e0-4caa-aa9e-fde34bb8c5d2">
    </UnitTestResult>
    <UnitTestResult executionId="e67054ac-e65f-48fd-8f56-9487b4d4527c" testId="96649c23-35e4-ac98-d05e-f6c3c4eb7e55" testName="Input_15_Return_12Fizz4Buzz5Fizz78FizzBuzz11Fizz1314FizzBuzz" computerName="SHREE-DD1D10F2C" testType="13cdc9d9-ddb5-4fa4-a97d-d965ccfc6d4b" outcome="NotExecuted" testListId="8c84fa94-04c1-424b-9868-57a2d4851a1d" relativeResultsDirectory="e67054ac-e65f-48fd-8f56-9487b4d4527c">
    </UnitTestResult>
  </Results>
</TestRun>