﻿<?xml version="1.0" encoding="UTF-8"?>
<TestRun id="e3c4a49e-9e4f-475c-aabc-d04956b684c7" name="shree om systems@SHREE-DD1D10F2C 2015-06-08 10:36:38" runUser="SHREE-DD1D10F2C\shree om systems" xmlns="http://microsoft.com/schemas/VisualStudio/TeamTest/2010">
  <TestSettings name="Local" id="260d8e00-1d3a-4ebd-a21c-8c2b3a6da126">
    <Description>These are default test settings for a local test run.</Description>
    <Deployment enabled="false" runDeploymentRoot="shree om systems_SHREE-DD1D10F2C 2015-06-08 10_36_38">
      <DeploymentItem filename="D:\DemoProject\FizzBuzzDemo\packages\Moq.4.2.1502.0911\lib\net40\Moq.dll" />
      <DeploymentItem filename="D:\DemoProject\FizzBuzzDemo\packages\Microsoft.Web.Infrastructure.1.0.0.0\lib\net40\Microsoft.Web.Infrastructure.dll" />
      <DeploymentItem filename="D:\DemoProject\FizzBuzzDemo\ServiceRepository\bin\Debug\ServiceRepository.dll" />
      <DeploymentItem filename="D:\DemoProject\FizzBuzzDemo\MvcFizzBuzz.Web\bin\MvcFizzBuzz.Web.dll" />
      <DeploymentItem filename="D:\DemoProject\FizzBuzzDemo\DAL.Models\bin\Debug\DAL.Models.dll" />
      <DeploymentItem filename="D:\DemoProject\FizzBuzzDemo\packages\WebActivatorEx.2.0\lib\net40\WebActivatorEx.dll" />
    </Deployment>
    <Execution>
      <TestTypeSpecific />
      <AgentRule name="Execution Agents">
      </AgentRule>
    </Execution>
  </TestSettings>
  <Times creation="2015-06-08T10:36:38.0410031+05:30" queuing="2015-06-08T10:36:42.8691281+05:30" start="2015-06-08T10:36:43.1660031+05:30" finish="2015-06-08T10:36:59.2910031+05:30" />
  <ResultSummary outcome="Failed">
    <Counters total="6" executed="6" passed="5" error="0" failed="1" timeout="0" aborted="0" inconclusive="0" passedButRunAborted="0" notRunnable="0" notExecuted="0" disconnected="0" warning="0" completed="0" inProgress="0" pending="0" />
  </ResultSummary>
  <TestDefinitions>
    <UnitTest name="Index_Action_Returns_DefaultView" storage="d:\demoproject\fizzbuzzdemo\fizzbuzztest\bin\debug\fizzbuzztest.dll" id="b8755da2-e1bc-7ba0-7f14-f109221b2e1a">
      <Execution id="0ae0f82b-9207-415c-8757-4263c2a67350" />
      <TestMethod codeBase="D:/DemoProject/FizzBuzzDemo/FizzBuzzTest/bin/Debug/FizzBuzzTest.DLL" adapterTypeName="Microsoft.VisualStudio.TestTools.TestTypes.Unit.UnitTestAdapter, Microsoft.VisualStudio.QualityTools.Tips.UnitTest.Adapter, Version=10.0.0.0, Culture=neutral, PublicKeyToken=b03f5f7f11d50a3a" className="FizzBuzzTest.FizzBuzzUnitTestController, FizzBuzzTest, Version=1.0.0.0, Culture=neutral, PublicKeyToken=null" name="Index_Action_Returns_DefaultView" />
    </UnitTest>
    <UnitTest name="Input_5_Return_12Fizz4Buzz" storage="d:\demoproject\fizzbuzzdemo\fizzbuzztest\bin\debug\fizzbuzztest.dll" id="0b9c2df5-1b52-e907-ebee-29fe473aff61">
      <Execution id="b0eb9d76-7e92-4825-befc-2ff5348d52a5" />
      <TestMethod codeBase="D:/DemoProject/FizzBuzzDemo/FizzBuzzTest/bin/Debug/FizzBuzzTest.DLL" adapterTypeName="Microsoft.VisualStudio.TestTools.TestTypes.Unit.UnitTestAdapter, Microsoft.VisualStudio.QualityTools.Tips.UnitTest.Adapter, Version=10.0.0.0, Culture=neutral, PublicKeyToken=b03f5f7f11d50a3a" className="FizzBuzzTest.FizzBuzzUnitTestController, FizzBuzzTest, Version=1.0.0.0, Culture=neutral, PublicKeyToken=null" name="Input_5_Return_12Fizz4Buzz" />
    </UnitTest>
    <UnitTest name="Test_Action_Returns_FizzBuzzLists" storage="d:\demoproject\fizzbuzzdemo\fizzbuzztest\bin\debug\fizzbuzztest.dll" id="ddc34a25-8dee-bd07-3ef6-54a291e7f19e">
      <Execution id="ca5b5c5c-32c7-4efd-a57d-003eb171d8b1" />
      <TestMethod codeBase="D:/DemoProject/FizzBuzzDemo/FizzBuzzTest/bin/Debug/FizzBuzzTest.DLL" adapterTypeName="Microsoft.VisualStudio.TestTools.TestTypes.Unit.UnitTestAdapter, Microsoft.VisualStudio.QualityTools.Tips.UnitTest.Adapter, Version=10.0.0.0, Culture=neutral, PublicKeyToken=b03f5f7f11d50a3a" className="FizzBuzzTest.FizzBuzzUnitTestController, FizzBuzzTest, Version=1.0.0.0, Culture=neutral, PublicKeyToken=null" name="Test_Action_Returns_FizzBuzzLists" />
    </UnitTest>
    <UnitTest name="Input_15_Return_12Fizz4Buzz5Fizz78FizzBuzz11Fizz1314FizzBuzz" storage="d:\demoproject\fizzbuzzdemo\fizzbuzztest\bin\debug\fizzbuzztest.dll" id="96649c23-35e4-ac98-d05e-f6c3c4eb7e55">
      <Execution id="d92269d5-1464-447b-b087-595609b5a1bd" />
      <TestMethod codeBase="D:/DemoProject/FizzBuzzDemo/FizzBuzzTest/bin/Debug/FizzBuzzTest.DLL" adapterTypeName="Microsoft.VisualStudio.TestTools.TestTypes.Unit.UnitTestAdapter, Microsoft.VisualStudio.QualityTools.Tips.UnitTest.Adapter, Version=10.0.0.0, Culture=neutral, PublicKeyToken=b03f5f7f11d50a3a" className="FizzBuzzTest.FizzBuzzUnitTestController, FizzBuzzTest, Version=1.0.0.0, Culture=neutral, PublicKeyToken=null" name="Input_15_Return_12Fizz4Buzz5Fizz78FizzBuzz11Fizz1314FizzBuzz" />
    </UnitTest>
    <UnitTest name="Input_3_Return_12Fizz" storage="d:\demoproject\fizzbuzzdemo\fizzbuzztest\bin\debug\fizzbuzztest.dll" id="145666c7-ed77-f201-c493-205f009ec71f">
      <Execution id="a112b625-bd3a-4514-a1cd-0feb2c2da426" />
      <TestMethod codeBase="D:/DemoProject/FizzBuzzDemo/FizzBuzzTest/bin/Debug/FizzBuzzTest.DLL" adapterTypeName="Microsoft.VisualStudio.TestTools.TestTypes.Unit.UnitTestAdapter, Microsoft.VisualStudio.QualityTools.Tips.UnitTest.Adapter, Version=10.0.0.0, Culture=neutral, PublicKeyToken=b03f5f7f11d50a3a" className="FizzBuzzTest.FizzBuzzUnitTestController, FizzBuzzTest, Version=1.0.0.0, Culture=neutral, PublicKeyToken=null" name="Input_3_Return_12Fizz" />
    </UnitTest>
    <UnitTest name="Index_Action_Returns_ViewResult" storage="d:\demoproject\fizzbuzzdemo\fizzbuzztest\bin\debug\fizzbuzztest.dll" id="098de6c7-1069-471a-a717-e0d9a39eabdd">
      <Execution id="5f08a407-2349-490c-91ae-55c11346d652" />
      <TestMethod codeBase="D:/DemoProject/FizzBuzzDemo/FizzBuzzTest/bin/Debug/FizzBuzzTest.DLL" adapterTypeName="Microsoft.VisualStudio.TestTools.TestTypes.Unit.UnitTestAdapter, Microsoft.VisualStudio.QualityTools.Tips.UnitTest.Adapter, Version=10.0.0.0, Culture=neutral, PublicKeyToken=b03f5f7f11d50a3a" className="FizzBuzzTest.FizzBuzzUnitTestController, FizzBuzzTest, Version=1.0.0.0, Culture=neutral, PublicKeyToken=null" name="Index_Action_Returns_ViewResult" />
    </UnitTest>
  </TestDefinitions>
  <TestLists>
    <TestList name="Results Not in a List" id="8c84fa94-04c1-424b-9868-57a2d4851a1d" />
    <TestList name="All Loaded Results" id="19431567-8539-422a-85d7-44ee4e166bda" />
  </TestLists>
  <TestEntries>
    <TestEntry testId="098de6c7-1069-471a-a717-e0d9a39eabdd" executionId="5f08a407-2349-490c-91ae-55c11346d652" testListId="8c84fa94-04c1-424b-9868-57a2d4851a1d" />
    <TestEntry testId="b8755da2-e1bc-7ba0-7f14-f109221b2e1a" executionId="0ae0f82b-9207-415c-8757-4263c2a67350" testListId="8c84fa94-04c1-424b-9868-57a2d4851a1d" />
    <TestEntry testId="145666c7-ed77-f201-c493-205f009ec71f" executionId="a112b625-bd3a-4514-a1cd-0feb2c2da426" testListId="8c84fa94-04c1-424b-9868-57a2d4851a1d" />
    <TestEntry testId="0b9c2df5-1b52-e907-ebee-29fe473aff61" executionId="b0eb9d76-7e92-4825-befc-2ff5348d52a5" testListId="8c84fa94-04c1-424b-9868-57a2d4851a1d" />
    <TestEntry testId="96649c23-35e4-ac98-d05e-f6c3c4eb7e55" executionId="d92269d5-1464-447b-b087-595609b5a1bd" testListId="8c84fa94-04c1-424b-9868-57a2d4851a1d" />
    <TestEntry testId="ddc34a25-8dee-bd07-3ef6-54a291e7f19e" executionId="ca5b5c5c-32c7-4efd-a57d-003eb171d8b1" testListId="8c84fa94-04c1-424b-9868-57a2d4851a1d" />
  </TestEntries>
  <Results>
    <UnitTestResult executionId="5f08a407-2349-490c-91ae-55c11346d652" testId="098de6c7-1069-471a-a717-e0d9a39eabdd" testName="Index_Action_Returns_ViewResult" computerName="SHREE-DD1D10F2C" duration="00:00:07.1915943" startTime="2015-06-08T10:36:43.3535031+05:30" endTime="2015-06-08T10:36:52.2910031+05:30" testType="13cdc9d9-ddb5-4fa4-a97d-d965ccfc6d4b" outcome="Passed" testListId="8c84fa94-04c1-424b-9868-57a2d4851a1d" relativeResultsDirectory="5f08a407-2349-490c-91ae-55c11346d652">
    </UnitTestResult>
    <UnitTestResult executionId="0ae0f82b-9207-415c-8757-4263c2a67350" testId="b8755da2-e1bc-7ba0-7f14-f109221b2e1a" testName="Index_Action_Returns_DefaultView" computerName="SHREE-DD1D10F2C" duration="00:00:02.1022037" startTime="2015-06-08T10:36:52.3066281+05:30" endTime="2015-06-08T10:36:54.4160031+05:30" testType="13cdc9d9-ddb5-4fa4-a97d-d965ccfc6d4b" outcome="Passed" testListId="8c84fa94-04c1-424b-9868-57a2d4851a1d" relativeResultsDirectory="0ae0f82b-9207-415c-8757-4263c2a67350">
    </UnitTestResult>
    <UnitTestResult executionId="a112b625-bd3a-4514-a1cd-0feb2c2da426" testId="145666c7-ed77-f201-c493-205f009ec71f" testName="Input_3_Return_12Fizz" computerName="SHREE-DD1D10F2C" duration="00:00:00.6070407" startTime="2015-06-08T10:36:54.4472531+05:30" endTime="2015-06-08T10:36:55.0722531+05:30" testType="13cdc9d9-ddb5-4fa4-a97d-d965ccfc6d4b" outcome="Passed" testListId="8c84fa94-04c1-424b-9868-57a2d4851a1d" relativeResultsDirectory="a112b625-bd3a-4514-a1cd-0feb2c2da426">
    </UnitTestResult>
    <UnitTestResult executionId="b0eb9d76-7e92-4825-befc-2ff5348d52a5" testId="0b9c2df5-1b52-e907-ebee-29fe473aff61" testName="Input_5_Return_12Fizz4Buzz" computerName="SHREE-DD1D10F2C" duration="00:00:00.1078043" startTime="2015-06-08T10:36:55.0878781+05:30" endTime="2015-06-08T10:36:55.1972531+05:30" testType="13cdc9d9-ddb5-4fa4-a97d-d965ccfc6d4b" outcome="Passed" testListId="8c84fa94-04c1-424b-9868-57a2d4851a1d" relativeResultsDirectory="b0eb9d76-7e92-4825-befc-2ff5348d52a5">
    </UnitTestResult>
    <UnitTestResult executionId="d92269d5-1464-447b-b087-595609b5a1bd" testId="96649c23-35e4-ac98-d05e-f6c3c4eb7e55" testName="Input_15_Return_12Fizz4Buzz5Fizz78FizzBuzz11Fizz1314FizzBuzz" computerName="SHREE-DD1D10F2C" duration="00:00:00.1192716" startTime="2015-06-08T10:36:55.2128781+05:30" endTime="2015-06-08T10:36:55.3691281+05:30" testType="13cdc9d9-ddb5-4fa4-a97d-d965ccfc6d4b" outcome="Passed" testListId="8c84fa94-04c1-424b-9868-57a2d4851a1d" relativeResultsDirectory="d92269d5-1464-447b-b087-595609b5a1bd">
    </UnitTestResult>
    <UnitTestResult executionId="ca5b5c5c-32c7-4efd-a57d-003eb171d8b1" testId="ddc34a25-8dee-bd07-3ef6-54a291e7f19e" testName="Test_Action_Returns_FizzBuzzLists" computerName="SHREE-DD1D10F2C" duration="00:00:03.6220507" startTime="2015-06-08T10:36:55.3691281+05:30" endTime="2015-06-08T10:36:59.0097531+05:30" testType="13cdc9d9-ddb5-4fa4-a97d-d965ccfc6d4b" outcome="Failed" testListId="8c84fa94-04c1-424b-9868-57a2d4851a1d" relativeResultsDirectory="ca5b5c5c-32c7-4efd-a57d-003eb171d8b1">
      <Output>
        <ErrorInfo>
          <Message>Test method FizzBuzzTest.FizzBuzzUnitTestController.Test_Action_Returns_FizzBuzzLists threw exception: 
System.ArgumentNullException: Value cannot be null.
Parameter name: source</Message>
          <StackTrace>    at System.Linq.Queryable.AsQueryable[TElement](IEnumerable`1 source)
   at PagedList.PagedList`1..ctor(IEnumerable`1 superset, Int32 pageNumber, Int32 pageSize)
   at PagedList.PagedListExtensions.ToPagedList[T](IEnumerable`1 superset, Int32 pageNumber, Int32 pageSize)
   at MvcFizzBuzz.Web.Controllers.FizzBuzzController.Index(Nullable`1 search, Nullable`1 page) in D:\DemoProject\FizzBuzzDemo\MvcFizzBuzz.Web\Controllers\FizzBuzzController.cs:line 35
   at FizzBuzzTest.FizzBuzzUnitTestController.Test_Action_Returns_FizzBuzzLists() in D:\DemoProject\FizzBuzzDemo\FizzBuzzTest\FizzBuzzUnitTestController.cs:line 115
</StackTrace>
        </ErrorInfo>
      </Output>
    </UnitTestResult>
  </Results>
</TestRun>