﻿<?xml version="1.0" encoding="UTF-8"?>
<TestRun id="7ecc299f-e7f5-45d1-9032-dd24d3ff60c2" name="G N MALEK@GNMALEK-PC 2015-06-12 08:12:28" runUser="GNMALEK-PC\G N MALEK" xmlns="http://microsoft.com/schemas/VisualStudio/TeamTest/2010">
  <TestSettings name="Local" id="260d8e00-1d3a-4ebd-a21c-8c2b3a6da126">
    <Description>These are default test settings for a local test run.</Description>
    <Deployment enabled="false" runDeploymentRoot="G N MALEK_GNMALEK-PC 2015-06-12 08_12_28">
      <DeploymentItem filename="E:\Fuzail_Projects\FizzBuzzDemo\packages\Microsoft.Web.Infrastructure.1.0.0.0\lib\net40\Microsoft.Web.Infrastructure.dll" />
      <DeploymentItem filename="E:\Fuzail_Projects\FizzBuzzDemo\packages\Moq.4.2.1502.0911\lib\net40\Moq.dll" />
      <DeploymentItem filename="E:\Fuzail_Projects\FizzBuzzDemo\MvcFizzBuzz.Web\bin\MvcFizzBuzz.Web.dll" />
      <DeploymentItem filename="E:\Fuzail_Projects\FizzBuzzDemo\packages\WebActivatorEx.2.0\lib\net40\WebActivatorEx.dll" />
    </Deployment>
    <Execution>
      <TestTypeSpecific />
      <AgentRule name="Execution Agents">
      </AgentRule>
    </Execution>
  </TestSettings>
  <Times creation="2015-06-12T08:12:28.9676000+05:30" queuing="2015-06-12T08:12:39.7436000+05:30" start="2015-06-12T08:12:39.9566000+05:30" finish="2015-06-12T08:12:46.4796000+05:30" />
  <ResultSummary outcome="Completed">
    <Counters total="7" executed="7" passed="7" error="0" failed="0" timeout="0" aborted="0" inconclusive="0" passedButRunAborted="0" notRunnable="0" notExecuted="0" disconnected="0" warning="0" completed="0" inProgress="0" pending="0" />
  </ResultSummary>
  <TestDefinitions>
    <UnitTest name="Passing_Number_Fifteen_Returns_Output_String_FizzBuzz" storage="e:\fuzail_projects\fizzbuzzdemo\fizzbuzztest\bin\debug\fizzbuzztest.dll" id="6b0ab3c5-b89b-7c72-7463-801d9b51d947">
      <Execution id="7873b704-a5ef-48c6-91b5-03b30144bd92" />
      <TestMethod codeBase="E:/Fuzail_Projects/FizzBuzzDemo/FizzBuzzTest/bin/Debug/FizzBuzzTest.DLL" adapterTypeName="Microsoft.VisualStudio.TestTools.TestTypes.Unit.UnitTestAdapter, Microsoft.VisualStudio.QualityTools.Tips.UnitTest.Adapter, Version=10.0.0.0, Culture=neutral, PublicKeyToken=b03f5f7f11d50a3a" className="FizzBuzzTest.FuzzBuzzRepositoryTest, FizzBuzzTest, Version=1.0.0.0, Culture=neutral, PublicKeyToken=null" name="Passing_Number_Fifteen_Returns_Output_String_FizzBuzz" />
    </UnitTest>
    <UnitTest name="Index_ActionResult_Returns_Index_View" storage="e:\fuzail_projects\fizzbuzzdemo\fizzbuzztest\bin\debug\fizzbuzztest.dll" id="90da0bb6-b80a-f2bf-fcaa-b711489582e7">
      <Execution id="12215d6c-611d-4fa1-8c8e-31460fccc0f5" />
      <TestMethod codeBase="E:/Fuzail_Projects/FizzBuzzDemo/FizzBuzzTest/bin/Debug/FizzBuzzTest.DLL" adapterTypeName="Microsoft.VisualStudio.TestTools.TestTypes.Unit.UnitTestAdapter, Microsoft.VisualStudio.QualityTools.Tips.UnitTest.Adapter, Version=10.0.0.0, Culture=neutral, PublicKeyToken=b03f5f7f11d50a3a" className="FizzBuzzTest.FizzBuzzControllerTest, FizzBuzzTest, Version=1.0.0.0, Culture=neutral, PublicKeyToken=null" name="Index_ActionResult_Returns_Index_View" />
    </UnitTest>
    <UnitTest name="Index_ActionResult_Returns_Lists_Of_Items" storage="e:\fuzail_projects\fizzbuzzdemo\fizzbuzztest\bin\debug\fizzbuzztest.dll" id="91e2b142-938c-422b-02cd-80fea991dc1a">
      <Execution id="8fb034d7-4334-4bcb-abdb-f5986758b23b" />
      <TestMethod codeBase="E:/Fuzail_Projects/FizzBuzzDemo/FizzBuzzTest/bin/Debug/FizzBuzzTest.DLL" adapterTypeName="Microsoft.VisualStudio.TestTools.TestTypes.Unit.UnitTestAdapter, Microsoft.VisualStudio.QualityTools.Tips.UnitTest.Adapter, Version=10.0.0.0, Culture=neutral, PublicKeyToken=b03f5f7f11d50a3a" className="FizzBuzzTest.FizzBuzzControllerTest, FizzBuzzTest, Version=1.0.0.0, Culture=neutral, PublicKeyToken=null" name="Index_ActionResult_Returns_Lists_Of_Items" />
    </UnitTest>
    <UnitTest name="Passing_number_Five_Returns_Output_string_Buzz" storage="e:\fuzail_projects\fizzbuzzdemo\fizzbuzztest\bin\debug\fizzbuzztest.dll" id="28f558a6-371b-9fc7-c37c-bd80098e31bc">
      <Execution id="3e8cefc9-3a81-4ed3-ab70-c9a87da18a57" />
      <TestMethod codeBase="E:/Fuzail_Projects/FizzBuzzDemo/FizzBuzzTest/bin/Debug/FizzBuzzTest.DLL" adapterTypeName="Microsoft.VisualStudio.TestTools.TestTypes.Unit.UnitTestAdapter, Microsoft.VisualStudio.QualityTools.Tips.UnitTest.Adapter, Version=10.0.0.0, Culture=neutral, PublicKeyToken=b03f5f7f11d50a3a" className="FizzBuzzTest.BuzzRepositoryTest, FizzBuzzTest, Version=1.0.0.0, Culture=neutral, PublicKeyToken=null" name="Passing_number_Five_Returns_Output_string_Buzz" />
    </UnitTest>
    <UnitTest name="Passing_Number_Fifteen_Returns_Output_Items_Count_Fifteen" storage="e:\fuzail_projects\fizzbuzzdemo\fizzbuzztest\bin\debug\fizzbuzztest.dll" id="75b5857e-728c-223b-f090-42258942103c">
      <Execution id="283422cc-dabb-474e-96a3-63ec157c949f" />
      <TestMethod codeBase="E:/Fuzail_Projects/FizzBuzzDemo/FizzBuzzTest/bin/Debug/FizzBuzzTest.DLL" adapterTypeName="Microsoft.VisualStudio.TestTools.TestTypes.Unit.UnitTestAdapter, Microsoft.VisualStudio.QualityTools.Tips.UnitTest.Adapter, Version=10.0.0.0, Culture=neutral, PublicKeyToken=b03f5f7f11d50a3a" className="FizzBuzzTest.UnitOfWorkTest, FizzBuzzTest, Version=1.0.0.0, Culture=neutral, PublicKeyToken=null" name="Passing_Number_Fifteen_Returns_Output_Items_Count_Fifteen" />
    </UnitTest>
    <UnitTest name="Index_ActionResult_Returns_ViewResult" storage="e:\fuzail_projects\fizzbuzzdemo\fizzbuzztest\bin\debug\fizzbuzztest.dll" id="66fa80c6-90d7-5f4a-cf9f-8a9a463cd66c">
      <Execution id="4ef8c714-82cc-4839-986d-d9f5a59a9e50" />
      <TestMethod codeBase="E:/Fuzail_Projects/FizzBuzzDemo/FizzBuzzTest/bin/Debug/FizzBuzzTest.DLL" adapterTypeName="Microsoft.VisualStudio.TestTools.TestTypes.Unit.UnitTestAdapter, Microsoft.VisualStudio.QualityTools.Tips.UnitTest.Adapter, Version=10.0.0.0, Culture=neutral, PublicKeyToken=b03f5f7f11d50a3a" className="FizzBuzzTest.FizzBuzzControllerTest, FizzBuzzTest, Version=1.0.0.0, Culture=neutral, PublicKeyToken=null" name="Index_ActionResult_Returns_ViewResult" />
    </UnitTest>
    <UnitTest name="Passing_number_Three_Returns_Output_string_Fizz" storage="e:\fuzail_projects\fizzbuzzdemo\fizzbuzztest\bin\debug\fizzbuzztest.dll" id="67c4e1ef-2f2c-b906-1cf0-d961d1cc4220">
      <Execution id="55e9f483-a474-474a-bec2-adb3c2ed7c31" />
      <TestMethod codeBase="E:/Fuzail_Projects/FizzBuzzDemo/FizzBuzzTest/bin/Debug/FizzBuzzTest.DLL" adapterTypeName="Microsoft.VisualStudio.TestTools.TestTypes.Unit.UnitTestAdapter, Microsoft.VisualStudio.QualityTools.Tips.UnitTest.Adapter, Version=10.0.0.0, Culture=neutral, PublicKeyToken=b03f5f7f11d50a3a" className="FizzBuzzTest.FizzRepositoryTest, FizzBuzzTest, Version=1.0.0.0, Culture=neutral, PublicKeyToken=null" name="Passing_number_Three_Returns_Output_string_Fizz" />
    </UnitTest>
  </TestDefinitions>
  <TestLists>
    <TestList name="Results Not in a List" id="8c84fa94-04c1-424b-9868-57a2d4851a1d" />
    <TestList name="All Loaded Results" id="19431567-8539-422a-85d7-44ee4e166bda" />
  </TestLists>
  <TestEntries>
    <TestEntry testId="66fa80c6-90d7-5f4a-cf9f-8a9a463cd66c" executionId="4ef8c714-82cc-4839-986d-d9f5a59a9e50" testListId="8c84fa94-04c1-424b-9868-57a2d4851a1d" />
    <TestEntry testId="90da0bb6-b80a-f2bf-fcaa-b711489582e7" executionId="12215d6c-611d-4fa1-8c8e-31460fccc0f5" testListId="8c84fa94-04c1-424b-9868-57a2d4851a1d" />
    <TestEntry testId="91e2b142-938c-422b-02cd-80fea991dc1a" executionId="8fb034d7-4334-4bcb-abdb-f5986758b23b" testListId="8c84fa94-04c1-424b-9868-57a2d4851a1d" />
    <TestEntry testId="6b0ab3c5-b89b-7c72-7463-801d9b51d947" executionId="7873b704-a5ef-48c6-91b5-03b30144bd92" testListId="8c84fa94-04c1-424b-9868-57a2d4851a1d" />
    <TestEntry testId="67c4e1ef-2f2c-b906-1cf0-d961d1cc4220" executionId="55e9f483-a474-474a-bec2-adb3c2ed7c31" testListId="8c84fa94-04c1-424b-9868-57a2d4851a1d" />
    <TestEntry testId="28f558a6-371b-9fc7-c37c-bd80098e31bc" executionId="3e8cefc9-3a81-4ed3-ab70-c9a87da18a57" testListId="8c84fa94-04c1-424b-9868-57a2d4851a1d" />
    <TestEntry testId="75b5857e-728c-223b-f090-42258942103c" executionId="283422cc-dabb-474e-96a3-63ec157c949f" testListId="8c84fa94-04c1-424b-9868-57a2d4851a1d" />
  </TestEntries>
  <Results>
    <UnitTestResult executionId="4ef8c714-82cc-4839-986d-d9f5a59a9e50" testId="66fa80c6-90d7-5f4a-cf9f-8a9a463cd66c" testName="Index_ActionResult_Returns_ViewResult" computerName="GNMALEK-PC" duration="00:00:04.4742043" startTime="2015-06-12T08:12:40.1256000+05:30" endTime="2015-06-12T08:12:45.6136000+05:30" testType="13cdc9d9-ddb5-4fa4-a97d-d965ccfc6d4b" outcome="Passed" testListId="8c84fa94-04c1-424b-9868-57a2d4851a1d" relativeResultsDirectory="4ef8c714-82cc-4839-986d-d9f5a59a9e50">
    </UnitTestResult>
    <UnitTestResult executionId="12215d6c-611d-4fa1-8c8e-31460fccc0f5" testId="90da0bb6-b80a-f2bf-fcaa-b711489582e7" testName="Index_ActionResult_Returns_Index_View" computerName="GNMALEK-PC" duration="00:00:00.4952136" startTime="2015-06-12T08:12:45.6206000+05:30" endTime="2015-06-12T08:12:46.1246000+05:30" testType="13cdc9d9-ddb5-4fa4-a97d-d965ccfc6d4b" outcome="Passed" testListId="8c84fa94-04c1-424b-9868-57a2d4851a1d" relativeResultsDirectory="12215d6c-611d-4fa1-8c8e-31460fccc0f5">
    </UnitTestResult>
    <UnitTestResult executionId="8fb034d7-4334-4bcb-abdb-f5986758b23b" testId="91e2b142-938c-422b-02cd-80fea991dc1a" testName="Index_ActionResult_Returns_Lists_Of_Items" computerName="GNMALEK-PC" duration="00:00:00.1580001" startTime="2015-06-12T08:12:46.1556000+05:30" endTime="2015-06-12T08:12:46.3206000+05:30" testType="13cdc9d9-ddb5-4fa4-a97d-d965ccfc6d4b" outcome="Passed" testListId="8c84fa94-04c1-424b-9868-57a2d4851a1d" relativeResultsDirectory="8fb034d7-4334-4bcb-abdb-f5986758b23b">
    </UnitTestResult>
    <UnitTestResult executionId="7873b704-a5ef-48c6-91b5-03b30144bd92" testId="6b0ab3c5-b89b-7c72-7463-801d9b51d947" testName="Passing_Number_Fifteen_Returns_Output_String_FizzBuzz" computerName="GNMALEK-PC" duration="00:00:00.0006020" startTime="2015-06-12T08:12:46.3256000+05:30" endTime="2015-06-12T08:12:46.3306000+05:30" testType="13cdc9d9-ddb5-4fa4-a97d-d965ccfc6d4b" outcome="Passed" testListId="8c84fa94-04c1-424b-9868-57a2d4851a1d" relativeResultsDirectory="7873b704-a5ef-48c6-91b5-03b30144bd92">
    </UnitTestResult>
    <UnitTestResult executionId="55e9f483-a474-474a-bec2-adb3c2ed7c31" testId="67c4e1ef-2f2c-b906-1cf0-d961d1cc4220" testName="Passing_number_Three_Returns_Output_string_Fizz" computerName="GNMALEK-PC" duration="00:00:00.0005392" startTime="2015-06-12T08:12:46.3356000+05:30" endTime="2015-06-12T08:12:46.3406000+05:30" testType="13cdc9d9-ddb5-4fa4-a97d-d965ccfc6d4b" outcome="Passed" testListId="8c84fa94-04c1-424b-9868-57a2d4851a1d" relativeResultsDirectory="55e9f483-a474-474a-bec2-adb3c2ed7c31">
    </UnitTestResult>
    <UnitTestResult executionId="3e8cefc9-3a81-4ed3-ab70-c9a87da18a57" testId="28f558a6-371b-9fc7-c37c-bd80098e31bc" testName="Passing_number_Five_Returns_Output_string_Buzz" computerName="GNMALEK-PC" duration="00:00:00.0005396" startTime="2015-06-12T08:12:46.3446000+05:30" endTime="2015-06-12T08:12:46.3496000+05:30" testType="13cdc9d9-ddb5-4fa4-a97d-d965ccfc6d4b" outcome="Passed" testListId="8c84fa94-04c1-424b-9868-57a2d4851a1d" relativeResultsDirectory="3e8cefc9-3a81-4ed3-ab70-c9a87da18a57">
    </UnitTestResult>
    <UnitTestResult executionId="283422cc-dabb-474e-96a3-63ec157c949f" testId="75b5857e-728c-223b-f090-42258942103c" testName="Passing_Number_Fifteen_Returns_Output_Items_Count_Fifteen" computerName="GNMALEK-PC" duration="00:00:00.0021692" startTime="2015-06-12T08:12:46.3536000+05:30" endTime="2015-06-12T08:12:46.3616000+05:30" testType="13cdc9d9-ddb5-4fa4-a97d-d965ccfc6d4b" outcome="Passed" testListId="8c84fa94-04c1-424b-9868-57a2d4851a1d" relativeResultsDirectory="283422cc-dabb-474e-96a3-63ec157c949f">
    </UnitTestResult>
  </Results>
</TestRun>