﻿<?xml version="1.0" encoding="UTF-8"?>
<TestRun id="22e5dcd1-dd30-45ce-a4d7-df413d7719f4" name="G N MALEK@GNMALEK-PC 2015-06-12 18:08:54" runUser="GNMALEK-PC\G N MALEK" xmlns="http://microsoft.com/schemas/VisualStudio/TeamTest/2010">
  <TestSettings name="Local" id="260d8e00-1d3a-4ebd-a21c-8c2b3a6da126">
    <Description>These are default test settings for a local test run.</Description>
    <Deployment enabled="false" runDeploymentRoot="G N MALEK_GNMALEK-PC 2015-06-12 18_08_54">
      <DeploymentItem filename="E:\bitbucketRepository\newfizzbuzz\FizzBuzzRepositoryPattern\packages\WebActivatorEx.2.0\lib\net40\WebActivatorEx.dll" />
      <DeploymentItem filename="E:\bitbucketRepository\newfizzbuzz\FizzBuzzRepositoryPattern\packages\Microsoft.Web.Infrastructure.1.0.0.0\lib\net40\Microsoft.Web.Infrastructure.dll" />
      <DeploymentItem filename="E:\bitbucketRepository\newfizzbuzz\FizzBuzzRepositoryPattern\MvcFizzBuzz.Web\bin\MvcFizzBuzz.Web.dll" />
      <DeploymentItem filename="E:\bitbucketRepository\newfizzbuzz\FizzBuzzRepositoryPattern\packages\Moq.4.2.1502.0911\lib\net40\Moq.dll" />
    </Deployment>
    <Execution>
      <TestTypeSpecific />
      <AgentRule name="Execution Agents">
      </AgentRule>
    </Execution>
  </TestSettings>
  <Times creation="2015-06-12T18:08:54.1886000+05:30" queuing="2015-06-12T18:08:55.6116000+05:30" start="2015-06-12T18:08:55.7846000+05:30" finish="2015-06-12T18:09:23.8376000+05:30" />
  <ResultSummary outcome="Error">
    <Counters total="7" executed="2" passed="1" error="0" failed="0" timeout="0" aborted="1" inconclusive="0" passedButRunAborted="0" notRunnable="0" notExecuted="5" disconnected="0" warning="0" completed="0" inProgress="0" pending="0" />
    <RunInfos>
      <RunInfo computerName="GNMALEK-PC" outcome="Error" timestamp="2015-06-12T18:09:23.8366000+05:30">
        <Text>Test host process exited unexpectedly.</Text>
      </RunInfo>
    </RunInfos>
  </ResultSummary>
  <TestDefinitions>
    <UnitTest name="Index_ActionResult_Returns_Index_View" storage="e:\bitbucketrepository\newfizzbuzz\fizzbuzzrepositorypattern\fizzbuzztest\bin\debug\fizzbuzztest.dll" id="90da0bb6-b80a-f2bf-fcaa-b711489582e7">
      <Execution id="75e1128b-efd0-4be7-a1fa-cf9b9da91dff" />
      <TestMethod codeBase="E:/bitbucketRepository/newfizzbuzz/FizzBuzzRepositoryPattern/FizzBuzzTest/bin/Debug/FizzBuzzTest.DLL" adapterTypeName="Microsoft.VisualStudio.TestTools.TestTypes.Unit.UnitTestAdapter, Microsoft.VisualStudio.QualityTools.Tips.UnitTest.Adapter, Version=10.0.0.0, Culture=neutral, PublicKeyToken=b03f5f7f11d50a3a" className="FizzBuzzTest.FizzBuzzControllerTest, FizzBuzzTest, Version=1.0.0.0, Culture=neutral, PublicKeyToken=null" name="Index_ActionResult_Returns_Index_View" />
    </UnitTest>
    <UnitTest name="Passing_Number_Fifteen_Returns_Output_String_FizzBuzz" storage="e:\bitbucketrepository\newfizzbuzz\fizzbuzzrepositorypattern\fizzbuzztest\bin\debug\fizzbuzztest.dll" id="6b0ab3c5-b89b-7c72-7463-801d9b51d947">
      <Execution id="6c546684-f1c2-4838-b298-2af346ca04b8" />
      <TestMethod codeBase="E:/bitbucketRepository/newfizzbuzz/FizzBuzzRepositoryPattern/FizzBuzzTest/bin/Debug/FizzBuzzTest.DLL" adapterTypeName="Microsoft.VisualStudio.TestTools.TestTypes.Unit.UnitTestAdapter, Microsoft.VisualStudio.QualityTools.Tips.UnitTest.Adapter, Version=10.0.0.0, Culture=neutral, PublicKeyToken=b03f5f7f11d50a3a" className="FizzBuzzTest.FuzzBuzzRepositoryTest, FizzBuzzTest, Version=1.0.0.0, Culture=neutral, PublicKeyToken=null" name="Passing_Number_Fifteen_Returns_Output_String_FizzBuzz" />
    </UnitTest>
    <UnitTest name="Passing_number_Five_Returns_Output_string_Buzz" storage="e:\bitbucketrepository\newfizzbuzz\fizzbuzzrepositorypattern\fizzbuzztest\bin\debug\fizzbuzztest.dll" id="28f558a6-371b-9fc7-c37c-bd80098e31bc">
      <Execution id="4f14f2f7-872f-4196-b133-b8ac7c07a906" />
      <TestMethod codeBase="E:/bitbucketRepository/newfizzbuzz/FizzBuzzRepositoryPattern/FizzBuzzTest/bin/Debug/FizzBuzzTest.DLL" adapterTypeName="Microsoft.VisualStudio.TestTools.TestTypes.Unit.UnitTestAdapter, Microsoft.VisualStudio.QualityTools.Tips.UnitTest.Adapter, Version=10.0.0.0, Culture=neutral, PublicKeyToken=b03f5f7f11d50a3a" className="FizzBuzzTest.BuzzRepositoryTest, FizzBuzzTest, Version=1.0.0.0, Culture=neutral, PublicKeyToken=null" name="Passing_number_Five_Returns_Output_string_Buzz" />
    </UnitTest>
    <UnitTest name="Passing_number_Three_Returns_Output_string_Fizz" storage="e:\bitbucketrepository\newfizzbuzz\fizzbuzzrepositorypattern\fizzbuzztest\bin\debug\fizzbuzztest.dll" id="67c4e1ef-2f2c-b906-1cf0-d961d1cc4220">
      <Execution id="b3eb1c2f-cc4f-447e-9a71-4adc5acc069d" />
      <TestMethod codeBase="E:/bitbucketRepository/newfizzbuzz/FizzBuzzRepositoryPattern/FizzBuzzTest/bin/Debug/FizzBuzzTest.DLL" adapterTypeName="Microsoft.VisualStudio.TestTools.TestTypes.Unit.UnitTestAdapter, Microsoft.VisualStudio.QualityTools.Tips.UnitTest.Adapter, Version=10.0.0.0, Culture=neutral, PublicKeyToken=b03f5f7f11d50a3a" className="FizzBuzzTest.FizzRepositoryTest, FizzBuzzTest, Version=1.0.0.0, Culture=neutral, PublicKeyToken=null" name="Passing_number_Three_Returns_Output_string_Fizz" />
    </UnitTest>
    <UnitTest name="Index_ActionResult_Returns_Lists_Of_Items" storage="e:\bitbucketrepository\newfizzbuzz\fizzbuzzrepositorypattern\fizzbuzztest\bin\debug\fizzbuzztest.dll" id="91e2b142-938c-422b-02cd-80fea991dc1a">
      <Execution id="b9e1c0d1-823f-45da-95e0-30aab5dd431c" />
      <TestMethod codeBase="E:/bitbucketRepository/newfizzbuzz/FizzBuzzRepositoryPattern/FizzBuzzTest/bin/Debug/FizzBuzzTest.DLL" adapterTypeName="Microsoft.VisualStudio.TestTools.TestTypes.Unit.UnitTestAdapter, Microsoft.VisualStudio.QualityTools.Tips.UnitTest.Adapter, Version=10.0.0.0, Culture=neutral, PublicKeyToken=b03f5f7f11d50a3a" className="FizzBuzzTest.FizzBuzzControllerTest, FizzBuzzTest, Version=1.0.0.0, Culture=neutral, PublicKeyToken=null" name="Index_ActionResult_Returns_Lists_Of_Items" />
    </UnitTest>
    <UnitTest name="Passing_Number_Fifteen_Returns_Output_Items_Count_Fifteen" storage="e:\bitbucketrepository\newfizzbuzz\fizzbuzzrepositorypattern\fizzbuzztest\bin\debug\fizzbuzztest.dll" id="75b5857e-728c-223b-f090-42258942103c">
      <Execution id="a31430c9-dd95-4ac3-83c3-d5d1ca6e1ce5" />
      <TestMethod codeBase="E:/bitbucketRepository/newfizzbuzz/FizzBuzzRepositoryPattern/FizzBuzzTest/bin/Debug/FizzBuzzTest.DLL" adapterTypeName="Microsoft.VisualStudio.TestTools.TestTypes.Unit.UnitTestAdapter, Microsoft.VisualStudio.QualityTools.Tips.UnitTest.Adapter, Version=10.0.0.0, Culture=neutral, PublicKeyToken=b03f5f7f11d50a3a" className="FizzBuzzTest.UnitOfWorkTest, FizzBuzzTest, Version=1.0.0.0, Culture=neutral, PublicKeyToken=null" name="Passing_Number_Fifteen_Returns_Output_Items_Count_Fifteen" />
    </UnitTest>
    <UnitTest name="Index_ActionResult_Returns_ViewResult" storage="e:\bitbucketrepository\newfizzbuzz\fizzbuzzrepositorypattern\fizzbuzztest\bin\debug\fizzbuzztest.dll" id="66fa80c6-90d7-5f4a-cf9f-8a9a463cd66c">
      <Execution id="ad8cf971-04a4-465b-b059-d8c202e74bdd" />
      <TestMethod codeBase="E:/bitbucketRepository/newfizzbuzz/FizzBuzzRepositoryPattern/FizzBuzzTest/bin/Debug/FizzBuzzTest.DLL" adapterTypeName="Microsoft.VisualStudio.TestTools.TestTypes.Unit.UnitTestAdapter, Microsoft.VisualStudio.QualityTools.Tips.UnitTest.Adapter, Version=10.0.0.0, Culture=neutral, PublicKeyToken=b03f5f7f11d50a3a" className="FizzBuzzTest.FizzBuzzControllerTest, FizzBuzzTest, Version=1.0.0.0, Culture=neutral, PublicKeyToken=null" name="Index_ActionResult_Returns_ViewResult" />
    </UnitTest>
  </TestDefinitions>
  <TestLists>
    <TestList name="Results Not in a List" id="8c84fa94-04c1-424b-9868-57a2d4851a1d" />
    <TestList name="All Loaded Results" id="19431567-8539-422a-85d7-44ee4e166bda" />
  </TestLists>
  <TestEntries>
    <TestEntry testId="75b5857e-728c-223b-f090-42258942103c" executionId="a31430c9-dd95-4ac3-83c3-d5d1ca6e1ce5" testListId="8c84fa94-04c1-424b-9868-57a2d4851a1d" />
    <TestEntry testId="6b0ab3c5-b89b-7c72-7463-801d9b51d947" executionId="6c546684-f1c2-4838-b298-2af346ca04b8" testListId="8c84fa94-04c1-424b-9868-57a2d4851a1d" />
    <TestEntry testId="28f558a6-371b-9fc7-c37c-bd80098e31bc" executionId="4f14f2f7-872f-4196-b133-b8ac7c07a906" testListId="8c84fa94-04c1-424b-9868-57a2d4851a1d" />
    <TestEntry testId="67c4e1ef-2f2c-b906-1cf0-d961d1cc4220" executionId="b3eb1c2f-cc4f-447e-9a71-4adc5acc069d" testListId="8c84fa94-04c1-424b-9868-57a2d4851a1d" />
    <TestEntry testId="66fa80c6-90d7-5f4a-cf9f-8a9a463cd66c" executionId="ad8cf971-04a4-465b-b059-d8c202e74bdd" testListId="8c84fa94-04c1-424b-9868-57a2d4851a1d" />
    <TestEntry testId="90da0bb6-b80a-f2bf-fcaa-b711489582e7" executionId="75e1128b-efd0-4be7-a1fa-cf9b9da91dff" testListId="8c84fa94-04c1-424b-9868-57a2d4851a1d" />
    <TestEntry testId="91e2b142-938c-422b-02cd-80fea991dc1a" executionId="b9e1c0d1-823f-45da-95e0-30aab5dd431c" testListId="8c84fa94-04c1-424b-9868-57a2d4851a1d" />
  </TestEntries>
  <Results>
    <UnitTestResult executionId="a31430c9-dd95-4ac3-83c3-d5d1ca6e1ce5" testId="75b5857e-728c-223b-f090-42258942103c" testName="Passing_Number_Fifteen_Returns_Output_Items_Count_Fifteen" computerName="GNMALEK-PC" duration="00:00:00.0199723" startTime="2015-06-12T18:08:55.9166000+05:30" endTime="2015-06-12T18:08:56.4716000+05:30" testType="13cdc9d9-ddb5-4fa4-a97d-d965ccfc6d4b" outcome="Passed" testListId="8c84fa94-04c1-424b-9868-57a2d4851a1d" relativeResultsDirectory="a31430c9-dd95-4ac3-83c3-d5d1ca6e1ce5">
    </UnitTestResult>
    <UnitTestResult executionId="6c546684-f1c2-4838-b298-2af346ca04b8" testId="6b0ab3c5-b89b-7c72-7463-801d9b51d947" testName="Passing_Number_Fifteen_Returns_Output_String_FizzBuzz" computerName="GNMALEK-PC" duration="00:00:27.3490000" startTime="2015-06-12T18:08:56.4886000+05:30" endTime="2015-06-12T18:09:23.8376000+05:30" testType="13cdc9d9-ddb5-4fa4-a97d-d965ccfc6d4b" outcome="Aborted" testListId="8c84fa94-04c1-424b-9868-57a2d4851a1d" relativeResultsDirectory="6c546684-f1c2-4838-b298-2af346ca04b8">
    </UnitTestResult>
    <UnitTestResult executionId="4f14f2f7-872f-4196-b133-b8ac7c07a906" testId="28f558a6-371b-9fc7-c37c-bd80098e31bc" testName="Passing_number_Five_Returns_Output_string_Buzz" computerName="GNMALEK-PC" testType="13cdc9d9-ddb5-4fa4-a97d-d965ccfc6d4b" outcome="NotExecuted" testListId="8c84fa94-04c1-424b-9868-57a2d4851a1d" relativeResultsDirectory="4f14f2f7-872f-4196-b133-b8ac7c07a906">
    </UnitTestResult>
    <UnitTestResult executionId="b3eb1c2f-cc4f-447e-9a71-4adc5acc069d" testId="67c4e1ef-2f2c-b906-1cf0-d961d1cc4220" testName="Passing_number_Three_Returns_Output_string_Fizz" computerName="GNMALEK-PC" testType="13cdc9d9-ddb5-4fa4-a97d-d965ccfc6d4b" outcome="NotExecuted" testListId="8c84fa94-04c1-424b-9868-57a2d4851a1d" relativeResultsDirectory="b3eb1c2f-cc4f-447e-9a71-4adc5acc069d">
    </UnitTestResult>
    <UnitTestResult executionId="ad8cf971-04a4-465b-b059-d8c202e74bdd" testId="66fa80c6-90d7-5f4a-cf9f-8a9a463cd66c" testName="Index_ActionResult_Returns_ViewResult" computerName="GNMALEK-PC" testType="13cdc9d9-ddb5-4fa4-a97d-d965ccfc6d4b" outcome="NotExecuted" testListId="8c84fa94-04c1-424b-9868-57a2d4851a1d" relativeResultsDirectory="ad8cf971-04a4-465b-b059-d8c202e74bdd">
    </UnitTestResult>
    <UnitTestResult executionId="75e1128b-efd0-4be7-a1fa-cf9b9da91dff" testId="90da0bb6-b80a-f2bf-fcaa-b711489582e7" testName="Index_ActionResult_Returns_Index_View" computerName="GNMALEK-PC" testType="13cdc9d9-ddb5-4fa4-a97d-d965ccfc6d4b" outcome="NotExecuted" testListId="8c84fa94-04c1-424b-9868-57a2d4851a1d" relativeResultsDirectory="75e1128b-efd0-4be7-a1fa-cf9b9da91dff">
    </UnitTestResult>
    <UnitTestResult executionId="b9e1c0d1-823f-45da-95e0-30aab5dd431c" testId="91e2b142-938c-422b-02cd-80fea991dc1a" testName="Index_ActionResult_Returns_Lists_Of_Items" computerName="GNMALEK-PC" testType="13cdc9d9-ddb5-4fa4-a97d-d965ccfc6d4b" outcome="NotExecuted" testListId="8c84fa94-04c1-424b-9868-57a2d4851a1d" relativeResultsDirectory="b9e1c0d1-823f-45da-95e0-30aab5dd431c">
    </UnitTestResult>
  </Results>
</TestRun>