﻿<?xml version="1.0" encoding="UTF-8"?>
<TestRun id="78746dc4-8489-49b7-9b1c-acb1cded88ac" name="G N MALEK@GNMALEK-PC 2015-06-12 08:46:11" runUser="GNMALEK-PC\G N MALEK" xmlns="http://microsoft.com/schemas/VisualStudio/TeamTest/2010">
  <TestSettings name="Local" id="260d8e00-1d3a-4ebd-a21c-8c2b3a6da126">
    <Description>These are default test settings for a local test run.</Description>
    <Deployment enabled="false" runDeploymentRoot="G N MALEK_GNMALEK-PC 2015-06-12 08_46_11">
      <DeploymentItem filename="E:\Fuzail_Projects\FizzBuzzDemo\packages\Microsoft.Web.Infrastructure.1.0.0.0\lib\net40\Microsoft.Web.Infrastructure.dll" />
      <DeploymentItem filename="E:\Fuzail_Projects\FizzBuzzDemo\packages\Moq.4.2.1502.0911\lib\net40\Moq.dll" />
      <DeploymentItem filename="E:\Fuzail_Projects\FizzBuzzDemo\MvcFizzBuzz.Web\bin\MvcFizzBuzz.Web.dll" />
      <DeploymentItem filename="E:\Fuzail_Projects\FizzBuzzDemo\packages\WebActivatorEx.2.0\lib\net40\WebActivatorEx.dll" />
    </Deployment>
    <Execution>
      <TestTypeSpecific />
      <AgentRule name="Execution Agents">
      </AgentRule>
    </Execution>
  </TestSettings>
  <Times creation="2015-06-12T08:46:11.9996000+05:30" queuing="2015-06-12T08:46:13.3676000+05:30" start="2015-06-12T08:46:13.4946000+05:30" finish="2015-06-12T08:46:18.7766000+05:30" />
  <ResultSummary outcome="Completed">
    <Counters total="7" executed="7" passed="7" error="0" failed="0" timeout="0" aborted="0" inconclusive="0" passedButRunAborted="0" notRunnable="0" notExecuted="0" disconnected="0" warning="0" completed="0" inProgress="0" pending="0" />
  </ResultSummary>
  <TestDefinitions>
    <UnitTest name="Passing_Number_Fifteen_Returns_Output_String_FizzBuzz" storage="e:\fuzail_projects\fizzbuzzdemo\fizzbuzztest\bin\debug\fizzbuzztest.dll" id="6b0ab3c5-b89b-7c72-7463-801d9b51d947">
      <Execution id="63c97ee4-f0bd-4075-9e84-74e7629d8f97" />
      <TestMethod codeBase="E:/Fuzail_Projects/FizzBuzzDemo/FizzBuzzTest/bin/Debug/FizzBuzzTest.DLL" adapterTypeName="Microsoft.VisualStudio.TestTools.TestTypes.Unit.UnitTestAdapter, Microsoft.VisualStudio.QualityTools.Tips.UnitTest.Adapter, Version=10.0.0.0, Culture=neutral, PublicKeyToken=b03f5f7f11d50a3a" className="FizzBuzzTest.FuzzBuzzRepositoryTest, FizzBuzzTest, Version=1.0.0.0, Culture=neutral, PublicKeyToken=null" name="Passing_Number_Fifteen_Returns_Output_String_FizzBuzz" />
    </UnitTest>
    <UnitTest name="Index_ActionResult_Returns_Index_View" storage="e:\fuzail_projects\fizzbuzzdemo\fizzbuzztest\bin\debug\fizzbuzztest.dll" id="90da0bb6-b80a-f2bf-fcaa-b711489582e7">
      <Execution id="2559270c-ec0c-4b9e-8701-36fe6da1873e" />
      <TestMethod codeBase="E:/Fuzail_Projects/FizzBuzzDemo/FizzBuzzTest/bin/Debug/FizzBuzzTest.DLL" adapterTypeName="Microsoft.VisualStudio.TestTools.TestTypes.Unit.UnitTestAdapter, Microsoft.VisualStudio.QualityTools.Tips.UnitTest.Adapter, Version=10.0.0.0, Culture=neutral, PublicKeyToken=b03f5f7f11d50a3a" className="FizzBuzzTest.FizzBuzzControllerTest, FizzBuzzTest, Version=1.0.0.0, Culture=neutral, PublicKeyToken=null" name="Index_ActionResult_Returns_Index_View" />
    </UnitTest>
    <UnitTest name="Index_ActionResult_Returns_Lists_Of_Items" storage="e:\fuzail_projects\fizzbuzzdemo\fizzbuzztest\bin\debug\fizzbuzztest.dll" id="91e2b142-938c-422b-02cd-80fea991dc1a">
      <Execution id="4b75234e-871e-4de9-b129-deb89a3ea575" />
      <TestMethod codeBase="E:/Fuzail_Projects/FizzBuzzDemo/FizzBuzzTest/bin/Debug/FizzBuzzTest.DLL" adapterTypeName="Microsoft.VisualStudio.TestTools.TestTypes.Unit.UnitTestAdapter, Microsoft.VisualStudio.QualityTools.Tips.UnitTest.Adapter, Version=10.0.0.0, Culture=neutral, PublicKeyToken=b03f5f7f11d50a3a" className="FizzBuzzTest.FizzBuzzControllerTest, FizzBuzzTest, Version=1.0.0.0, Culture=neutral, PublicKeyToken=null" name="Index_ActionResult_Returns_Lists_Of_Items" />
    </UnitTest>
    <UnitTest name="Passing_number_Five_Returns_Output_string_Buzz" storage="e:\fuzail_projects\fizzbuzzdemo\fizzbuzztest\bin\debug\fizzbuzztest.dll" id="28f558a6-371b-9fc7-c37c-bd80098e31bc">
      <Execution id="59a8e1d8-9495-4d6b-a9e9-62c408bcd5a5" />
      <TestMethod codeBase="E:/Fuzail_Projects/FizzBuzzDemo/FizzBuzzTest/bin/Debug/FizzBuzzTest.DLL" adapterTypeName="Microsoft.VisualStudio.TestTools.TestTypes.Unit.UnitTestAdapter, Microsoft.VisualStudio.QualityTools.Tips.UnitTest.Adapter, Version=10.0.0.0, Culture=neutral, PublicKeyToken=b03f5f7f11d50a3a" className="FizzBuzzTest.BuzzRepositoryTest, FizzBuzzTest, Version=1.0.0.0, Culture=neutral, PublicKeyToken=null" name="Passing_number_Five_Returns_Output_string_Buzz" />
    </UnitTest>
    <UnitTest name="Passing_Number_Fifteen_Returns_Output_Items_Count_Fifteen" storage="e:\fuzail_projects\fizzbuzzdemo\fizzbuzztest\bin\debug\fizzbuzztest.dll" id="75b5857e-728c-223b-f090-42258942103c">
      <Execution id="93573872-9a83-4a21-abde-a814229cca59" />
      <TestMethod codeBase="E:/Fuzail_Projects/FizzBuzzDemo/FizzBuzzTest/bin/Debug/FizzBuzzTest.DLL" adapterTypeName="Microsoft.VisualStudio.TestTools.TestTypes.Unit.UnitTestAdapter, Microsoft.VisualStudio.QualityTools.Tips.UnitTest.Adapter, Version=10.0.0.0, Culture=neutral, PublicKeyToken=b03f5f7f11d50a3a" className="FizzBuzzTest.UnitOfWorkTest, FizzBuzzTest, Version=1.0.0.0, Culture=neutral, PublicKeyToken=null" name="Passing_Number_Fifteen_Returns_Output_Items_Count_Fifteen" />
    </UnitTest>
    <UnitTest name="Index_ActionResult_Returns_ViewResult" storage="e:\fuzail_projects\fizzbuzzdemo\fizzbuzztest\bin\debug\fizzbuzztest.dll" id="66fa80c6-90d7-5f4a-cf9f-8a9a463cd66c">
      <Execution id="328037ad-2a1c-4224-9ba7-0a5590aa43d6" />
      <TestMethod codeBase="E:/Fuzail_Projects/FizzBuzzDemo/FizzBuzzTest/bin/Debug/FizzBuzzTest.DLL" adapterTypeName="Microsoft.VisualStudio.TestTools.TestTypes.Unit.UnitTestAdapter, Microsoft.VisualStudio.QualityTools.Tips.UnitTest.Adapter, Version=10.0.0.0, Culture=neutral, PublicKeyToken=b03f5f7f11d50a3a" className="FizzBuzzTest.FizzBuzzControllerTest, FizzBuzzTest, Version=1.0.0.0, Culture=neutral, PublicKeyToken=null" name="Index_ActionResult_Returns_ViewResult" />
    </UnitTest>
    <UnitTest name="Passing_number_Three_Returns_Output_string_Fizz" storage="e:\fuzail_projects\fizzbuzzdemo\fizzbuzztest\bin\debug\fizzbuzztest.dll" id="67c4e1ef-2f2c-b906-1cf0-d961d1cc4220">
      <Execution id="3c3ab66f-6714-45ec-988f-027eda54189f" />
      <TestMethod codeBase="E:/Fuzail_Projects/FizzBuzzDemo/FizzBuzzTest/bin/Debug/FizzBuzzTest.DLL" adapterTypeName="Microsoft.VisualStudio.TestTools.TestTypes.Unit.UnitTestAdapter, Microsoft.VisualStudio.QualityTools.Tips.UnitTest.Adapter, Version=10.0.0.0, Culture=neutral, PublicKeyToken=b03f5f7f11d50a3a" className="FizzBuzzTest.FizzRepositoryTest, FizzBuzzTest, Version=1.0.0.0, Culture=neutral, PublicKeyToken=null" name="Passing_number_Three_Returns_Output_string_Fizz" />
    </UnitTest>
  </TestDefinitions>
  <TestLists>
    <TestList name="Results Not in a List" id="8c84fa94-04c1-424b-9868-57a2d4851a1d" />
    <TestList name="All Loaded Results" id="19431567-8539-422a-85d7-44ee4e166bda" />
  </TestLists>
  <TestEntries>
    <TestEntry testId="66fa80c6-90d7-5f4a-cf9f-8a9a463cd66c" executionId="328037ad-2a1c-4224-9ba7-0a5590aa43d6" testListId="8c84fa94-04c1-424b-9868-57a2d4851a1d" />
    <TestEntry testId="90da0bb6-b80a-f2bf-fcaa-b711489582e7" executionId="2559270c-ec0c-4b9e-8701-36fe6da1873e" testListId="8c84fa94-04c1-424b-9868-57a2d4851a1d" />
    <TestEntry testId="91e2b142-938c-422b-02cd-80fea991dc1a" executionId="4b75234e-871e-4de9-b129-deb89a3ea575" testListId="8c84fa94-04c1-424b-9868-57a2d4851a1d" />
    <TestEntry testId="6b0ab3c5-b89b-7c72-7463-801d9b51d947" executionId="63c97ee4-f0bd-4075-9e84-74e7629d8f97" testListId="8c84fa94-04c1-424b-9868-57a2d4851a1d" />
    <TestEntry testId="67c4e1ef-2f2c-b906-1cf0-d961d1cc4220" executionId="3c3ab66f-6714-45ec-988f-027eda54189f" testListId="8c84fa94-04c1-424b-9868-57a2d4851a1d" />
    <TestEntry testId="28f558a6-371b-9fc7-c37c-bd80098e31bc" executionId="59a8e1d8-9495-4d6b-a9e9-62c408bcd5a5" testListId="8c84fa94-04c1-424b-9868-57a2d4851a1d" />
    <TestEntry testId="75b5857e-728c-223b-f090-42258942103c" executionId="93573872-9a83-4a21-abde-a814229cca59" testListId="8c84fa94-04c1-424b-9868-57a2d4851a1d" />
  </TestEntries>
  <Results>
    <UnitTestResult executionId="328037ad-2a1c-4224-9ba7-0a5590aa43d6" testId="66fa80c6-90d7-5f4a-cf9f-8a9a463cd66c" testName="Index_ActionResult_Returns_ViewResult" computerName="GNMALEK-PC" duration="00:00:02.7716739" startTime="2015-06-12T08:46:13.6056000+05:30" endTime="2015-06-12T08:46:16.8366000+05:30" testType="13cdc9d9-ddb5-4fa4-a97d-d965ccfc6d4b" outcome="Passed" testListId="8c84fa94-04c1-424b-9868-57a2d4851a1d" relativeResultsDirectory="328037ad-2a1c-4224-9ba7-0a5590aa43d6">
    </UnitTestResult>
    <UnitTestResult executionId="2559270c-ec0c-4b9e-8701-36fe6da1873e" testId="90da0bb6-b80a-f2bf-fcaa-b711489582e7" testName="Index_ActionResult_Returns_Index_View" computerName="GNMALEK-PC" duration="00:00:01.7135773" startTime="2015-06-12T08:46:16.8426000+05:30" endTime="2015-06-12T08:46:18.5686000+05:30" testType="13cdc9d9-ddb5-4fa4-a97d-d965ccfc6d4b" outcome="Passed" testListId="8c84fa94-04c1-424b-9868-57a2d4851a1d" relativeResultsDirectory="2559270c-ec0c-4b9e-8701-36fe6da1873e">
    </UnitTestResult>
    <UnitTestResult executionId="4b75234e-871e-4de9-b129-deb89a3ea575" testId="91e2b142-938c-422b-02cd-80fea991dc1a" testName="Index_ActionResult_Returns_Lists_Of_Items" computerName="GNMALEK-PC" duration="00:00:00.0590298" startTime="2015-06-12T08:46:18.5876000+05:30" endTime="2015-06-12T08:46:18.6526000+05:30" testType="13cdc9d9-ddb5-4fa4-a97d-d965ccfc6d4b" outcome="Passed" testListId="8c84fa94-04c1-424b-9868-57a2d4851a1d" relativeResultsDirectory="4b75234e-871e-4de9-b129-deb89a3ea575">
    </UnitTestResult>
    <UnitTestResult executionId="63c97ee4-f0bd-4075-9e84-74e7629d8f97" testId="6b0ab3c5-b89b-7c72-7463-801d9b51d947" testName="Passing_Number_Fifteen_Returns_Output_String_FizzBuzz" computerName="GNMALEK-PC" duration="00:00:00.0023677" startTime="2015-06-12T08:46:18.6586000+05:30" endTime="2015-06-12T08:46:18.6826000+05:30" testType="13cdc9d9-ddb5-4fa4-a97d-d965ccfc6d4b" outcome="Passed" testListId="8c84fa94-04c1-424b-9868-57a2d4851a1d" relativeResultsDirectory="63c97ee4-f0bd-4075-9e84-74e7629d8f97">
    </UnitTestResult>
    <UnitTestResult executionId="3c3ab66f-6714-45ec-988f-027eda54189f" testId="67c4e1ef-2f2c-b906-1cf0-d961d1cc4220" testName="Passing_number_Three_Returns_Output_string_Fizz" computerName="GNMALEK-PC" duration="00:00:00.0005561" startTime="2015-06-12T08:46:18.6886000+05:30" endTime="2015-06-12T08:46:18.6926000+05:30" testType="13cdc9d9-ddb5-4fa4-a97d-d965ccfc6d4b" outcome="Passed" testListId="8c84fa94-04c1-424b-9868-57a2d4851a1d" relativeResultsDirectory="3c3ab66f-6714-45ec-988f-027eda54189f">
    </UnitTestResult>
    <UnitTestResult executionId="59a8e1d8-9495-4d6b-a9e9-62c408bcd5a5" testId="28f558a6-371b-9fc7-c37c-bd80098e31bc" testName="Passing_number_Five_Returns_Output_string_Buzz" computerName="GNMALEK-PC" duration="00:00:00.0005456" startTime="2015-06-12T08:46:18.6986000+05:30" endTime="2015-06-12T08:46:18.7026000+05:30" testType="13cdc9d9-ddb5-4fa4-a97d-d965ccfc6d4b" outcome="Passed" testListId="8c84fa94-04c1-424b-9868-57a2d4851a1d" relativeResultsDirectory="59a8e1d8-9495-4d6b-a9e9-62c408bcd5a5">
    </UnitTestResult>
    <UnitTestResult executionId="93573872-9a83-4a21-abde-a814229cca59" testId="75b5857e-728c-223b-f090-42258942103c" testName="Passing_Number_Fifteen_Returns_Output_Items_Count_Fifteen" computerName="GNMALEK-PC" duration="00:00:00.0022622" startTime="2015-06-12T08:46:18.7086000+05:30" endTime="2015-06-12T08:46:18.7146000+05:30" testType="13cdc9d9-ddb5-4fa4-a97d-d965ccfc6d4b" outcome="Passed" testListId="8c84fa94-04c1-424b-9868-57a2d4851a1d" relativeResultsDirectory="93573872-9a83-4a21-abde-a814229cca59">
    </UnitTestResult>
  </Results>
</TestRun>