﻿<?xml version="1.0" encoding="UTF-8"?>
<TestRun id="4efcbf01-77f3-451f-9a6a-4d414c9af0da" name="shree om systems@SHREE-DD1D10F2C 2015-06-08 12:32:59" runUser="SHREE-DD1D10F2C\shree om systems" xmlns="http://microsoft.com/schemas/VisualStudio/TeamTest/2010">
  <TestSettings name="Local" id="260d8e00-1d3a-4ebd-a21c-8c2b3a6da126">
    <Description>These are default test settings for a local test run.</Description>
    <Deployment enabled="false" runDeploymentRoot="shree om systems_SHREE-DD1D10F2C 2015-06-08 12_32_59">
      <DeploymentItem filename="D:\DemoProject\FizzBuzzDemo\packages\Moq.4.2.1502.0911\lib\net40\Moq.dll" />
      <DeploymentItem filename="D:\DemoProject\FizzBuzzDemo\packages\Microsoft.Web.Infrastructure.1.0.0.0\lib\net40\Microsoft.Web.Infrastructure.dll" />
      <DeploymentItem filename="D:\DemoProject\FizzBuzzDemo\ServiceRepository\bin\Debug\ServiceRepository.dll" />
      <DeploymentItem filename="D:\DemoProject\FizzBuzzDemo\MvcFizzBuzz.Web\bin\MvcFizzBuzz.Web.dll" />
      <DeploymentItem filename="D:\DemoProject\FizzBuzzDemo\DAL.Models\bin\Debug\DAL.Models.dll" />
      <DeploymentItem filename="D:\DemoProject\FizzBuzzDemo\packages\WebActivatorEx.2.0\lib\net40\WebActivatorEx.dll" />
    </Deployment>
    <Execution>
      <TestTypeSpecific />
      <AgentRule name="Execution Agents">
      </AgentRule>
    </Execution>
  </TestSettings>
  <Times creation="2015-06-08T12:32:59.5566281+05:30" queuing="2015-06-08T12:33:09.2128781+05:30" start="2015-06-08T12:33:09.6035031+05:30" finish="2015-06-08T12:33:29.4941281+05:30" />
  <ResultSummary outcome="Failed">
    <Counters total="9" executed="9" passed="8" error="0" failed="1" timeout="0" aborted="0" inconclusive="0" passedButRunAborted="0" notRunnable="0" notExecuted="0" disconnected="0" warning="0" completed="0" inProgress="0" pending="0" />
  </ResultSummary>
  <TestDefinitions>
    <UnitTest name="Index_Action_Returns_Lists_Of_FizzBuzz" storage="d:\demoproject\fizzbuzzdemo\fizzbuzztest\bin\debug\fizzbuzztest.dll" id="f3c6439e-2170-7c72-6e70-642aeddb10b7">
      <Execution id="f01c87e2-ea4e-4c62-822c-cb83efe6e378" />
      <TestMethod codeBase="D:/DemoProject/FizzBuzzDemo/FizzBuzzTest/bin/Debug/FizzBuzzTest.DLL" adapterTypeName="Microsoft.VisualStudio.TestTools.TestTypes.Unit.UnitTestAdapter, Microsoft.VisualStudio.QualityTools.Tips.UnitTest.Adapter, Version=10.0.0.0, Culture=neutral, PublicKeyToken=b03f5f7f11d50a3a" className="FizzBuzzTest.FizzBuzzUnitTestController, FizzBuzzTest, Version=1.0.0.0, Culture=neutral, PublicKeyToken=null" name="Index_Action_Returns_Lists_Of_FizzBuzz" />
    </UnitTest>
    <UnitTest name="Index_Action_Returns_DefaultView" storage="d:\demoproject\fizzbuzzdemo\fizzbuzztest\bin\debug\fizzbuzztest.dll" id="b8755da2-e1bc-7ba0-7f14-f109221b2e1a">
      <Execution id="4099f623-589a-4421-a5b8-4eca28ae46be" />
      <TestMethod codeBase="D:/DemoProject/FizzBuzzDemo/FizzBuzzTest/bin/Debug/FizzBuzzTest.DLL" adapterTypeName="Microsoft.VisualStudio.TestTools.TestTypes.Unit.UnitTestAdapter, Microsoft.VisualStudio.QualityTools.Tips.UnitTest.Adapter, Version=10.0.0.0, Culture=neutral, PublicKeyToken=b03f5f7f11d50a3a" className="FizzBuzzTest.FizzBuzzUnitTestController, FizzBuzzTest, Version=1.0.0.0, Culture=neutral, PublicKeyToken=null" name="Index_Action_Returns_DefaultView" />
    </UnitTest>
    <UnitTest name="Input_Fifteen_Returns_Fifteen_Items" storage="d:\demoproject\fizzbuzzdemo\fizzbuzztest\bin\debug\fizzbuzztest.dll" id="272f5511-65a1-9e2b-06bd-692f51a79db2">
      <Execution id="88b988d1-b15b-4274-8461-cf7a548fa188" />
      <TestMethod codeBase="D:/DemoProject/FizzBuzzDemo/FizzBuzzTest/bin/Debug/FizzBuzzTest.DLL" adapterTypeName="Microsoft.VisualStudio.TestTools.TestTypes.Unit.UnitTestAdapter, Microsoft.VisualStudio.QualityTools.Tips.UnitTest.Adapter, Version=10.0.0.0, Culture=neutral, PublicKeyToken=b03f5f7f11d50a3a" className="FizzBuzzTest.FizzBuzzUnitTestController, FizzBuzzTest, Version=1.0.0.0, Culture=neutral, PublicKeyToken=null" name="Input_Fifteen_Returns_Fifteen_Items" />
    </UnitTest>
    <UnitTest name="Input_Three_Returns_Three_Items" storage="d:\demoproject\fizzbuzzdemo\fizzbuzztest\bin\debug\fizzbuzztest.dll" id="c9eda806-aa21-5f98-6b4b-7866a432c8e3">
      <Execution id="9cfe97ef-3af8-4c35-aee3-5d17f2b8958e" />
      <TestMethod codeBase="D:/DemoProject/FizzBuzzDemo/FizzBuzzTest/bin/Debug/FizzBuzzTest.DLL" adapterTypeName="Microsoft.VisualStudio.TestTools.TestTypes.Unit.UnitTestAdapter, Microsoft.VisualStudio.QualityTools.Tips.UnitTest.Adapter, Version=10.0.0.0, Culture=neutral, PublicKeyToken=b03f5f7f11d50a3a" className="FizzBuzzTest.FizzBuzzUnitTestController, FizzBuzzTest, Version=1.0.0.0, Culture=neutral, PublicKeyToken=null" name="Input_Three_Returns_Three_Items" />
    </UnitTest>
    <UnitTest name="Input_Five_Returns_Five_Items" storage="d:\demoproject\fizzbuzzdemo\fizzbuzztest\bin\debug\fizzbuzztest.dll" id="4260cd51-76fa-947d-dfc3-7af2cfc12525">
      <Execution id="d65ac03d-1cbe-4637-b82f-a7a444cde740" />
      <TestMethod codeBase="D:/DemoProject/FizzBuzzDemo/FizzBuzzTest/bin/Debug/FizzBuzzTest.DLL" adapterTypeName="Microsoft.VisualStudio.TestTools.TestTypes.Unit.UnitTestAdapter, Microsoft.VisualStudio.QualityTools.Tips.UnitTest.Adapter, Version=10.0.0.0, Culture=neutral, PublicKeyToken=b03f5f7f11d50a3a" className="FizzBuzzTest.FizzBuzzUnitTestController, FizzBuzzTest, Version=1.0.0.0, Culture=neutral, PublicKeyToken=null" name="Input_Five_Returns_Five_Items" />
    </UnitTest>
    <UnitTest name="Input_Three_Returns_Three_Items_From_Repository" storage="d:\demoproject\fizzbuzzdemo\fizzbuzztest\bin\debug\fizzbuzztest.dll" id="9f2f6376-1d88-7a0e-1621-12221978b801">
      <Execution id="b698a9db-f622-4102-8f44-a69fa1f82fd3" />
      <TestMethod codeBase="D:/DemoProject/FizzBuzzDemo/FizzBuzzTest/bin/Debug/FizzBuzzTest.DLL" adapterTypeName="Microsoft.VisualStudio.TestTools.TestTypes.Unit.UnitTestAdapter, Microsoft.VisualStudio.QualityTools.Tips.UnitTest.Adapter, Version=10.0.0.0, Culture=neutral, PublicKeyToken=b03f5f7f11d50a3a" className="FizzBuzzTest.FizzBuzzUnitTestController, FizzBuzzTest, Version=1.0.0.0, Culture=neutral, PublicKeyToken=null" name="Input_Three_Returns_Three_Items_From_Repository" />
    </UnitTest>
    <UnitTest name="Input_Fifteen_Returns_Fifteen_Items_From_Repository" storage="d:\demoproject\fizzbuzzdemo\fizzbuzztest\bin\debug\fizzbuzztest.dll" id="774d663a-1d54-ecca-c6bb-66b55c004b8d">
      <Execution id="9c62ac51-a9de-41f6-b199-5962272be556" />
      <TestMethod codeBase="D:/DemoProject/FizzBuzzDemo/FizzBuzzTest/bin/Debug/FizzBuzzTest.DLL" adapterTypeName="Microsoft.VisualStudio.TestTools.TestTypes.Unit.UnitTestAdapter, Microsoft.VisualStudio.QualityTools.Tips.UnitTest.Adapter, Version=10.0.0.0, Culture=neutral, PublicKeyToken=b03f5f7f11d50a3a" className="FizzBuzzTest.FizzBuzzUnitTestController, FizzBuzzTest, Version=1.0.0.0, Culture=neutral, PublicKeyToken=null" name="Input_Fifteen_Returns_Fifteen_Items_From_Repository" />
    </UnitTest>
    <UnitTest name="Input_Five_Returns_Five_Items_From_Repository" storage="d:\demoproject\fizzbuzzdemo\fizzbuzztest\bin\debug\fizzbuzztest.dll" id="53039ff5-5105-1c60-1e23-93764b5f8e0e">
      <Execution id="ff756bc5-4c49-4306-a13b-cae42eee6e18" />
      <TestMethod codeBase="D:/DemoProject/FizzBuzzDemo/FizzBuzzTest/bin/Debug/FizzBuzzTest.DLL" adapterTypeName="Microsoft.VisualStudio.TestTools.TestTypes.Unit.UnitTestAdapter, Microsoft.VisualStudio.QualityTools.Tips.UnitTest.Adapter, Version=10.0.0.0, Culture=neutral, PublicKeyToken=b03f5f7f11d50a3a" className="FizzBuzzTest.FizzBuzzUnitTestController, FizzBuzzTest, Version=1.0.0.0, Culture=neutral, PublicKeyToken=null" name="Input_Five_Returns_Five_Items_From_Repository" />
    </UnitTest>
    <UnitTest name="Index_Action_Returns_ViewResult" storage="d:\demoproject\fizzbuzzdemo\fizzbuzztest\bin\debug\fizzbuzztest.dll" id="098de6c7-1069-471a-a717-e0d9a39eabdd">
      <Execution id="63d96bde-cead-4e2e-b7cb-88f3581b9485" />
      <TestMethod codeBase="D:/DemoProject/FizzBuzzDemo/FizzBuzzTest/bin/Debug/FizzBuzzTest.DLL" adapterTypeName="Microsoft.VisualStudio.TestTools.TestTypes.Unit.UnitTestAdapter, Microsoft.VisualStudio.QualityTools.Tips.UnitTest.Adapter, Version=10.0.0.0, Culture=neutral, PublicKeyToken=b03f5f7f11d50a3a" className="FizzBuzzTest.FizzBuzzUnitTestController, FizzBuzzTest, Version=1.0.0.0, Culture=neutral, PublicKeyToken=null" name="Index_Action_Returns_ViewResult" />
    </UnitTest>
  </TestDefinitions>
  <TestLists>
    <TestList name="Results Not in a List" id="8c84fa94-04c1-424b-9868-57a2d4851a1d" />
    <TestList name="All Loaded Results" id="19431567-8539-422a-85d7-44ee4e166bda" />
  </TestLists>
  <TestEntries>
    <TestEntry testId="098de6c7-1069-471a-a717-e0d9a39eabdd" executionId="63d96bde-cead-4e2e-b7cb-88f3581b9485" testListId="8c84fa94-04c1-424b-9868-57a2d4851a1d" />
    <TestEntry testId="b8755da2-e1bc-7ba0-7f14-f109221b2e1a" executionId="4099f623-589a-4421-a5b8-4eca28ae46be" testListId="8c84fa94-04c1-424b-9868-57a2d4851a1d" />
    <TestEntry testId="c9eda806-aa21-5f98-6b4b-7866a432c8e3" executionId="9cfe97ef-3af8-4c35-aee3-5d17f2b8958e" testListId="8c84fa94-04c1-424b-9868-57a2d4851a1d" />
    <TestEntry testId="4260cd51-76fa-947d-dfc3-7af2cfc12525" executionId="d65ac03d-1cbe-4637-b82f-a7a444cde740" testListId="8c84fa94-04c1-424b-9868-57a2d4851a1d" />
    <TestEntry testId="272f5511-65a1-9e2b-06bd-692f51a79db2" executionId="88b988d1-b15b-4274-8461-cf7a548fa188" testListId="8c84fa94-04c1-424b-9868-57a2d4851a1d" />
    <TestEntry testId="f3c6439e-2170-7c72-6e70-642aeddb10b7" executionId="f01c87e2-ea4e-4c62-822c-cb83efe6e378" testListId="8c84fa94-04c1-424b-9868-57a2d4851a1d" />
    <TestEntry testId="9f2f6376-1d88-7a0e-1621-12221978b801" executionId="b698a9db-f622-4102-8f44-a69fa1f82fd3" testListId="8c84fa94-04c1-424b-9868-57a2d4851a1d" />
    <TestEntry testId="53039ff5-5105-1c60-1e23-93764b5f8e0e" executionId="ff756bc5-4c49-4306-a13b-cae42eee6e18" testListId="8c84fa94-04c1-424b-9868-57a2d4851a1d" />
    <TestEntry testId="774d663a-1d54-ecca-c6bb-66b55c004b8d" executionId="9c62ac51-a9de-41f6-b199-5962272be556" testListId="8c84fa94-04c1-424b-9868-57a2d4851a1d" />
  </TestEntries>
  <Results>
    <UnitTestResult executionId="63d96bde-cead-4e2e-b7cb-88f3581b9485" testId="098de6c7-1069-471a-a717-e0d9a39eabdd" testName="Index_Action_Returns_ViewResult" computerName="SHREE-DD1D10F2C" duration="00:00:06.3398055" startTime="2015-06-08T12:33:09.9785031+05:30" endTime="2015-06-08T12:33:18.6503781+05:30" testType="13cdc9d9-ddb5-4fa4-a97d-d965ccfc6d4b" outcome="Passed" testListId="8c84fa94-04c1-424b-9868-57a2d4851a1d" relativeResultsDirectory="63d96bde-cead-4e2e-b7cb-88f3581b9485">
    </UnitTestResult>
    <UnitTestResult executionId="4099f623-589a-4421-a5b8-4eca28ae46be" testId="b8755da2-e1bc-7ba0-7f14-f109221b2e1a" testName="Index_Action_Returns_DefaultView" computerName="SHREE-DD1D10F2C" duration="00:00:01.0431716" startTime="2015-06-08T12:33:18.6660031+05:30" endTime="2015-06-08T12:33:19.7128781+05:30" testType="13cdc9d9-ddb5-4fa4-a97d-d965ccfc6d4b" outcome="Passed" testListId="8c84fa94-04c1-424b-9868-57a2d4851a1d" relativeResultsDirectory="4099f623-589a-4421-a5b8-4eca28ae46be">
    </UnitTestResult>
    <UnitTestResult executionId="9cfe97ef-3af8-4c35-aee3-5d17f2b8958e" testId="c9eda806-aa21-5f98-6b4b-7866a432c8e3" testName="Input_Three_Returns_Three_Items" computerName="SHREE-DD1D10F2C" duration="00:00:00.7095896" startTime="2015-06-08T12:33:19.7441281+05:30" endTime="2015-06-08T12:33:20.4628781+05:30" testType="13cdc9d9-ddb5-4fa4-a97d-d965ccfc6d4b" outcome="Passed" testListId="8c84fa94-04c1-424b-9868-57a2d4851a1d" relativeResultsDirectory="9cfe97ef-3af8-4c35-aee3-5d17f2b8958e">
    </UnitTestResult>
    <UnitTestResult executionId="d65ac03d-1cbe-4637-b82f-a7a444cde740" testId="4260cd51-76fa-947d-dfc3-7af2cfc12525" testName="Input_Five_Returns_Five_Items" computerName="SHREE-DD1D10F2C" duration="00:00:00.1084454" startTime="2015-06-08T12:33:20.4628781+05:30" endTime="2015-06-08T12:33:20.6035031+05:30" testType="13cdc9d9-ddb5-4fa4-a97d-d965ccfc6d4b" outcome="Passed" testListId="8c84fa94-04c1-424b-9868-57a2d4851a1d" relativeResultsDirectory="d65ac03d-1cbe-4637-b82f-a7a444cde740">
    </UnitTestResult>
    <UnitTestResult executionId="88b988d1-b15b-4274-8461-cf7a548fa188" testId="272f5511-65a1-9e2b-06bd-692f51a79db2" testName="Input_Fifteen_Returns_Fifteen_Items" computerName="SHREE-DD1D10F2C" duration="00:00:00.1138844" startTime="2015-06-08T12:33:20.6035031+05:30" endTime="2015-06-08T12:33:20.7285031+05:30" testType="13cdc9d9-ddb5-4fa4-a97d-d965ccfc6d4b" outcome="Passed" testListId="8c84fa94-04c1-424b-9868-57a2d4851a1d" relativeResultsDirectory="88b988d1-b15b-4274-8461-cf7a548fa188">
    </UnitTestResult>
    <UnitTestResult executionId="f01c87e2-ea4e-4c62-822c-cb83efe6e378" testId="f3c6439e-2170-7c72-6e70-642aeddb10b7" testName="Index_Action_Returns_Lists_Of_FizzBuzz" computerName="SHREE-DD1D10F2C" duration="00:00:08.3383699" startTime="2015-06-08T12:33:20.7597531+05:30" endTime="2015-06-08T12:33:29.1191281+05:30" testType="13cdc9d9-ddb5-4fa4-a97d-d965ccfc6d4b" outcome="Failed" testListId="8c84fa94-04c1-424b-9868-57a2d4851a1d" relativeResultsDirectory="f01c87e2-ea4e-4c62-822c-cb83efe6e378">
      <Output>
        <ErrorInfo>
          <Message>Assert.IsNotNull failed. The list of fish does not exist</Message>
          <StackTrace>   at FizzBuzzTest.FizzBuzzUnitTestController.Index_Action_Returns_Lists_Of_FizzBuzz() in D:\DemoProject\FizzBuzzDemo\FizzBuzzTest\FizzBuzzUnitTestController.cs:line 121
</StackTrace>
        </ErrorInfo>
      </Output>
    </UnitTestResult>
    <UnitTestResult executionId="b698a9db-f622-4102-8f44-a69fa1f82fd3" testId="9f2f6376-1d88-7a0e-1621-12221978b801" testName="Input_Three_Returns_Three_Items_From_Repository" computerName="SHREE-DD1D10F2C" duration="00:00:00.0017368" startTime="2015-06-08T12:33:29.1347531+05:30" endTime="2015-06-08T12:33:29.1347531+05:30" testType="13cdc9d9-ddb5-4fa4-a97d-d965ccfc6d4b" outcome="Passed" testListId="8c84fa94-04c1-424b-9868-57a2d4851a1d" relativeResultsDirectory="b698a9db-f622-4102-8f44-a69fa1f82fd3">
    </UnitTestResult>
    <UnitTestResult executionId="ff756bc5-4c49-4306-a13b-cae42eee6e18" testId="53039ff5-5105-1c60-1e23-93764b5f8e0e" testName="Input_Five_Returns_Five_Items_From_Repository" computerName="SHREE-DD1D10F2C" duration="00:00:00.0005573" startTime="2015-06-08T12:33:29.1503781+05:30" endTime="2015-06-08T12:33:29.1660031+05:30" testType="13cdc9d9-ddb5-4fa4-a97d-d965ccfc6d4b" outcome="Passed" testListId="8c84fa94-04c1-424b-9868-57a2d4851a1d" relativeResultsDirectory="ff756bc5-4c49-4306-a13b-cae42eee6e18">
    </UnitTestResult>
    <UnitTestResult executionId="9c62ac51-a9de-41f6-b199-5962272be556" testId="774d663a-1d54-ecca-c6bb-66b55c004b8d" testName="Input_Fifteen_Returns_Fifteen_Items_From_Repository" computerName="SHREE-DD1D10F2C" duration="00:00:00.0003279" startTime="2015-06-08T12:33:29.1816281+05:30" endTime="2015-06-08T12:33:29.1816281+05:30" testType="13cdc9d9-ddb5-4fa4-a97d-d965ccfc6d4b" outcome="Passed" testListId="8c84fa94-04c1-424b-9868-57a2d4851a1d" relativeResultsDirectory="9c62ac51-a9de-41f6-b199-5962272be556">
    </UnitTestResult>
  </Results>
</TestRun>